<?xml version="1.0" encoding="UTF-8"?>
<svg width="380" height="380" version="1.1" viewBox="0 0 100.54 100.54" xmlns="http://www.w3.org/2000/svg" xmlns:cc="http://creativecommons.org/ns#" xmlns:dc="http://purl.org/dc/elements/1.1/" xmlns:rdf="http://www.w3.org/1999/02/22-rdf-syntax-ns#" xmlns:xlink="http://www.w3.org/1999/xlink">
 <metadata>
  <rdf:RDF>
   <cc:Work rdf:about="">
    <dc:format>image/svg+xml</dc:format>
    <dc:type rdf:resource="http://purl.org/dc/dcmitype/StillImage"/>
    <dc:title/>
   </cc:Work>
  </rdf:RDF>
 </metadata>
 <g transform="translate(-55.195 -102.05)">
  <g id="dots" transform="translate(-.011411 -.01141)">
   <circle cx="56.529" cy="140.43" r=".0057067"/>
   <circle cx="56.529" cy="143.07" r=".0057067"/>
   <circle cx="56.53" cy="145.72" r=".011413"/>
   <circle cx="56.53" cy="148.37" r=".011413"/>
   <circle cx="56.53" cy="151.01" r=".011413"/>
   <circle cx="56.53" cy="153.66" r=".011413"/>
   <circle cx="56.53" cy="156.3" r=".011413"/>
   <circle cx="56.53" cy="158.95" r=".011413"/>
   <circle cx="56.529" cy="161.59" r=".0057067"/>
   <circle cx="56.529" cy="164.24" r=".0057067"/>
   <circle cx="56.529" cy="166.89" r=".0057067"/>
   <circle cx="59.175" cy="129.84" r=".0057067"/>
   <circle cx="59.175" cy="132.49" r=".011413"/>
   <circle cx="59.175" cy="135.14" r=".011413"/>
   <circle cx="59.176" cy="137.78" r=".01712"/>
   <circle cx="59.176" cy="140.43" r=".022827"/>
   <circle cx="59.177" cy="143.08" r=".028533"/>
   <circle cx="59.178" cy="145.72" r=".03424"/>
   <circle cx="59.178" cy="148.37" r=".039947"/>
   <circle cx="59.179" cy="151.02" r=".045654"/>
   <circle cx="59.179" cy="153.66" r=".045654"/>
   <circle cx="59.178" cy="156.31" r=".039947"/>
   <circle cx="59.178" cy="158.95" r=".039947"/>
   <circle cx="59.177" cy="161.6" r=".028533"/>
   <circle cx="59.176" cy="164.24" r=".022827"/>
   <circle cx="59.176" cy="166.89" r=".01712"/>
   <circle cx="59.175" cy="169.53" r=".011413"/>
   <circle cx="59.175" cy="172.18" r=".011413"/>
   <circle cx="59.175" cy="174.82" r=".0057067"/>
   <circle cx="61.821" cy="124.55" r=".0057067"/>
   <circle cx="61.821" cy="127.2" r=".011413"/>
   <circle cx="61.822" cy="129.85" r=".01712"/>
   <circle cx="61.823" cy="132.49" r=".028533"/>
   <circle cx="61.824" cy="135.14" r=".039947"/>
   <circle cx="61.825" cy="137.79" r=".05136"/>
   <circle cx="61.826" cy="140.43" r=".062774"/>
   <circle cx="61.828" cy="143.08" r=".079894"/>
   <circle cx="61.828" cy="145.73" r=".0856"/>
   <circle cx="61.829" cy="148.37" r=".097014"/>
   <circle cx="61.829" cy="151.02" r=".097014"/>
   <circle cx="61.829" cy="153.67" r=".097014"/>
   <circle cx="61.829" cy="156.31" r=".097014"/>
   <circle cx="61.828" cy="158.96" r=".0856"/>
   <circle cx="61.828" cy="161.6" r=".079894"/>
   <circle cx="61.826" cy="164.25" r=".06848"/>
   <circle cx="61.825" cy="166.89" r=".05136"/>
   <circle cx="61.824" cy="169.54" r=".039947"/>
   <circle cx="61.823" cy="172.18" r=".028533"/>
   <circle cx="61.822" cy="174.83" r=".01712"/>
   <circle cx="61.821" cy="177.47" r=".011413"/>
   <circle cx="61.821" cy="180.12" r=".0057067"/>
   <circle cx="64.467" cy="121.91" r=".0057067"/>
   <circle cx="64.467" cy="124.55" r=".011413"/>
   <circle cx="64.468" cy="127.2" r=".022827"/>
   <circle cx="64.47" cy="129.85" r=".039947"/>
   <circle cx="64.471" cy="132.49" r=".05136"/>
   <circle cx="64.473" cy="135.14" r=".074187"/>
   <circle cx="64.475" cy="137.79" r=".097014"/>
   <circle cx="64.476" cy="140.44" r=".11413"/>
   <circle cx="64.479" cy="143.09" r=".13696"/>
   <circle cx="64.48" cy="145.73" r=".15408"/>
   <circle cx="64.481" cy="148.38" r=".16549"/>
   <circle cx="64.482" cy="151.03" r=".17691"/>
   <circle cx="64.482" cy="153.67" r=".17691"/>
   <circle cx="64.481" cy="156.32" r=".16549"/>
   <circle cx="64.48" cy="158.96" r=".15408"/>
   <circle cx="64.479" cy="161.61" r=".13696"/>
   <circle cx="64.477" cy="164.25" r=".11984"/>
   <circle cx="64.475" cy="166.89" r=".097014"/>
   <circle cx="64.473" cy="169.54" r=".074187"/>
   <circle cx="64.471" cy="172.18" r=".057067"/>
   <circle cx="64.47" cy="174.83" r=".039947"/>
   <circle cx="64.468" cy="177.47" r=".022827"/>
   <circle cx="64.467" cy="180.12" r=".011413"/>
   <circle cx="64.467" cy="182.76" r=".0057067"/>
   <circle cx="67.113" cy="119.26" r=".011413"/>
   <circle cx="67.113" cy="121.91" r=".01712"/>
   <circle cx="67.115" cy="124.56" r=".03424"/>
   <circle cx="67.117" cy="127.2" r=".05136"/>
   <circle cx="67.119" cy="129.85" r=".079894"/>
   <circle cx="67.122" cy="132.5" r=".10843"/>
   <circle cx="67.125" cy="135.15" r=".14267"/>
   <circle cx="67.129" cy="137.8" r=".18261"/>
   <circle cx="67.132" cy="140.45" r=".21685"/>
   <circle cx="67.134" cy="143.1" r=".24539"/>
   <circle cx="67.137" cy="145.74" r=".27392"/>
   <circle cx="67.138" cy="148.39" r=".29104"/>
   <circle cx="67.139" cy="151.04" r=".30246"/>
   <circle cx="67.139" cy="153.68" r=".30246"/>
   <circle cx="67.138" cy="156.33" r=".29104"/>
   <circle cx="67.137" cy="158.97" r=".27392"/>
   <circle cx="67.134" cy="161.62" r=".24539"/>
   <circle cx="67.132" cy="164.26" r=".21685"/>
   <circle cx="67.129" cy="166.9" r=".18261"/>
   <circle cx="67.125" cy="169.55" r=".14837"/>
   <circle cx="67.122" cy="172.19" r=".11413"/>
   <circle cx="67.119" cy="174.83" r=".079894"/>
   <circle cx="67.117" cy="177.47" r=".05136"/>
   <circle cx="67.115" cy="180.12" r=".03424"/>
   <circle cx="67.113" cy="182.76" r=".01712"/>
   <circle cx="67.113" cy="185.41" r=".011413"/>
   <circle cx="69.759" cy="116.62" r=".011413"/>
   <circle cx="69.76" cy="119.26" r=".022827"/>
   <circle cx="69.761" cy="121.91" r=".039947"/>
   <circle cx="69.763" cy="124.56" r=".062774"/>
   <circle cx="69.767" cy="127.21" r=".10272"/>
   <circle cx="69.771" cy="129.86" r=".14267"/>
   <circle cx="69.775" cy="132.51" r=".19403"/>
   <circle cx="69.78" cy="135.16" r=".24539"/>
   <circle cx="69.785" cy="137.81" r=".29675"/>
   <circle cx="69.789" cy="140.46" r=".34811"/>
   <circle cx="69.793" cy="143.11" r=".38806"/>
   <circle cx="69.797" cy="145.76" r=".428"/>
   <circle cx="69.799" cy="148.41" r=".45083"/>
   <circle cx="69.8" cy="151.05" r=".46224"/>
   <circle cx="69.8" cy="153.7" r=".46224"/>
   <circle cx="69.799" cy="156.34" r=".45083"/>
   <circle cx="69.797" cy="158.99" r=".428"/>
   <circle cx="69.794" cy="161.63" r=".39376"/>
   <circle cx="69.789" cy="164.27" r=".34811"/>
   <circle cx="69.785" cy="166.91" r=".29675"/>
   <circle cx="69.78" cy="169.55" r=".24539"/>
   <circle cx="69.775" cy="172.2" r=".19403"/>
   <circle cx="69.771" cy="174.84" r=".14267"/>
   <circle cx="69.767" cy="177.48" r=".10272"/>
   <circle cx="69.764" cy="180.12" r=".06848"/>
   <circle cx="69.761" cy="182.76" r=".039947"/>
   <circle cx="69.76" cy="185.41" r=".022827"/>
   <circle cx="69.759" cy="188.05" r=".011413"/>
   <circle cx="72.405" cy="113.97" r=".011413"/>
   <circle cx="72.406" cy="116.62" r=".022827"/>
   <circle cx="72.407" cy="119.26" r=".039947"/>
   <circle cx="72.41" cy="121.91" r=".06848"/>
   <circle cx="72.414" cy="124.56" r=".11413"/>
   <circle cx="72.419" cy="127.21" r=".16549"/>
   <circle cx="72.424" cy="129.87" r=".22827"/>
   <circle cx="72.431" cy="132.52" r=".29675"/>
   <circle cx="72.437" cy="135.17" r=".37094"/>
   <circle cx="72.444" cy="137.82" r=".43942"/>
   <circle cx="72.45" cy="140.47" r=".5079"/>
   <circle cx="72.454" cy="143.12" r=".55926"/>
   <circle cx="72.459" cy="145.77" r=".60491"/>
   <circle cx="72.461" cy="148.42" r=".63344"/>
   <circle cx="72.463" cy="151.07" r=".65056"/>
   <circle cx="72.463" cy="153.72" r=".65056"/>
   <circle cx="72.461" cy="156.36" r=".63344"/>
   <circle cx="72.459" cy="159" r=".61062"/>
   <circle cx="72.455" cy="161.65" r=".56496"/>
   <circle cx="72.45" cy="164.29" r=".5079"/>
   <circle cx="72.444" cy="166.93" r=".44512"/>
   <circle cx="72.438" cy="169.57" r=".37664"/>
   <circle cx="72.431" cy="172.21" r=".30246"/>
   <circle cx="72.425" cy="174.84" r=".23397"/>
   <circle cx="72.419" cy="177.48" r=".1712"/>
   <circle cx="72.414" cy="180.13" r=".11413"/>
   <circle cx="72.41" cy="182.77" r=".074187"/>
   <circle cx="72.408" cy="185.41" r=".045654"/>
   <circle cx="72.406" cy="188.05" r=".022827"/>
   <circle cx="72.405" cy="190.7" r=".011413"/>
   <circle cx="75.05" cy="111.32" r=".0057067"/>
   <circle cx="75.051" cy="113.97" r=".01712"/>
   <circle cx="75.053" cy="116.62" r=".039947"/>
   <circle cx="75.056" cy="119.27" r=".06848"/>
   <circle cx="75.059" cy="121.92" r=".10843"/>
   <circle cx="75.065" cy="124.57" r=".1712"/>
   <circle cx="75.072" cy="127.22" r=".25109"/>
   <circle cx="75.08" cy="129.87" r=".33099"/>
   <circle cx="75.088" cy="132.53" r=".4223"/>
   <circle cx="75.096" cy="135.18" r=".5136"/>
   <circle cx="75.104" cy="137.84" r=".5992"/>
   <circle cx="75.111" cy="140.49" r=".6791"/>
   <circle cx="75.117" cy="143.14" r=".74187"/>
   <circle cx="75.122" cy="145.79" r=".79323"/>
   <circle cx="75.125" cy="148.44" r=".82747"/>
   <circle cx="75.126" cy="151.09" r=".84459"/>
   <circle cx="75.126" cy="153.73" r=".84459"/>
   <circle cx="75.125" cy="156.38" r=".82747"/>
   <circle cx="75.122" cy="159.02" r=".79323"/>
   <circle cx="75.117" cy="161.66" r=".74758"/>
   <circle cx="75.112" cy="164.3" r=".6848"/>
   <circle cx="75.104" cy="166.94" r=".60491"/>
   <circle cx="75.097" cy="169.58" r=".51931"/>
   <circle cx="75.088" cy="172.22" r=".428"/>
   <circle cx="75.081" cy="174.85" r=".3424"/>
   <circle cx="75.072" cy="177.49" r=".25109"/>
   <circle cx="75.065" cy="180.13" r=".17691"/>
   <circle cx="75.06" cy="182.77" r=".11413"/>
   <circle cx="75.056" cy="185.41" r=".074187"/>
   <circle cx="75.053" cy="188.06" r=".039947"/>
   <circle cx="75.051" cy="190.7" r=".01712"/>
   <circle cx="75.05" cy="193.34" r=".0057067"/>
   <circle cx="77.696" cy="108.68" r=".0057067"/>
   <circle cx="77.696" cy="111.32" r=".011413"/>
   <circle cx="77.698" cy="113.97" r=".03424"/>
   <circle cx="77.701" cy="116.62" r=".062774"/>
   <circle cx="77.706" cy="119.27" r=".11413"/>
   <circle cx="77.711" cy="121.92" r=".1712"/>
   <circle cx="77.719" cy="124.58" r=".2568"/>
   <circle cx="77.728" cy="127.23" r=".35952"/>
   <circle cx="77.737" cy="129.89" r=".46224"/>
   <circle cx="77.747" cy="132.54" r=".57067"/>
   <circle cx="77.757" cy="135.2" r=".6791"/>
   <circle cx="77.765" cy="137.85" r=".7704"/>
   <circle cx="77.773" cy="140.51" r=".856"/>
   <circle cx="77.779" cy="143.16" r=".92449"/>
   <circle cx="77.783" cy="145.81" r=".97014"/>
   <circle cx="77.787" cy="148.46" r="1.0044"/>
   <circle cx="77.788" cy="151.1" r="1.0215"/>
   <circle cx="77.789" cy="153.75" r="1.0272"/>
   <circle cx="77.787" cy="156.39" r="1.0101"/>
   <circle cx="77.784" cy="159.04" r=".97585"/>
   <circle cx="77.779" cy="161.68" r=".92449"/>
   <circle cx="77.774" cy="164.32" r=".86171"/>
   <circle cx="77.766" cy="166.96" r=".78182"/>
   <circle cx="77.758" cy="169.59" r=".6848"/>
   <circle cx="77.748" cy="172.23" r=".57638"/>
   <circle cx="77.738" cy="174.87" r=".46795"/>
   <circle cx="77.728" cy="177.5" r=".36523"/>
   <circle cx="77.719" cy="180.14" r=".26251"/>
   <circle cx="77.711" cy="182.78" r=".17691"/>
   <circle cx="77.706" cy="185.42" r=".11413"/>
   <circle cx="77.701" cy="188.06" r=".06848"/>
   <circle cx="77.698" cy="190.7" r=".03424"/>
   <circle cx="77.696" cy="193.35" r=".011413"/>
   <circle cx="77.696" cy="195.99" r=".0057067"/>
   <circle cx="80.342" cy="108.68" r=".011413"/>
   <circle cx="80.343" cy="111.33" r=".022827"/>
   <circle cx="80.346" cy="113.97" r=".05136"/>
   <circle cx="80.35" cy="116.62" r=".10272"/>
   <circle cx="80.356" cy="119.28" r=".16549"/>
   <circle cx="80.364" cy="121.93" r=".25109"/>
   <circle cx="80.374" cy="124.59" r=".35952"/>
   <circle cx="80.385" cy="127.24" r=".47936"/>
   <circle cx="80.396" cy="129.9" r=".60491"/>
   <circle cx="80.407" cy="132.56" r=".72475"/>
   <circle cx="80.417" cy="135.21" r=".83318"/>
   <circle cx="80.426" cy="137.87" r=".93019"/>
   <circle cx="80.433" cy="140.52" r="1.0158"/>
   <circle cx="80.439" cy="143.17" r="1.0786"/>
   <circle cx="80.443" cy="145.82" r="1.1242"/>
   <circle cx="80.446" cy="148.47" r="1.1528"/>
   <circle cx="80.447" cy="151.12" r="1.1642"/>
   <circle cx="80.447" cy="153.76" r="1.1642"/>
   <circle cx="80.446" cy="156.41" r="1.1528"/>
   <circle cx="80.443" cy="159.05" r="1.1242"/>
   <circle cx="80.439" cy="161.69" r="1.0786"/>
   <circle cx="80.434" cy="164.33" r="1.0215"/>
   <circle cx="80.426" cy="166.97" r=".9359"/>
   <circle cx="80.417" cy="169.61" r=".83888"/>
   <circle cx="80.407" cy="172.24" r=".73046"/>
   <circle cx="80.397" cy="174.88" r=".61062"/>
   <circle cx="80.385" cy="177.51" r=".48507"/>
   <circle cx="80.374" cy="180.15" r=".36523"/>
   <circle cx="80.364" cy="182.78" r=".2568"/>
   <circle cx="80.357" cy="185.42" r=".1712"/>
   <circle cx="80.35" cy="188.06" r=".10272"/>
   <circle cx="80.346" cy="190.7" r=".05136"/>
   <circle cx="80.343" cy="193.35" r=".022827"/>
   <circle cx="80.342" cy="195.99" r=".011413"/>
   <circle cx="82.987" cy="106.03" r=".0057067"/>
   <circle cx="82.988" cy="108.68" r=".01712"/>
   <circle cx="82.991" cy="111.33" r=".039947"/>
   <circle cx="82.994" cy="113.98" r=".079894"/>
   <circle cx="83" cy="116.63" r=".14267"/>
   <circle cx="83.008" cy="119.28" r=".22827"/>
   <circle cx="83.017" cy="121.94" r=".33099"/>
   <circle cx="83.029" cy="124.59" r=".46224"/>
   <circle cx="83.041" cy="127.25" r=".5992"/>
   <circle cx="83.054" cy="129.91" r=".73616"/>
   <circle cx="83.066" cy="132.57" r=".86742"/>
   <circle cx="83.076" cy="135.23" r=".98155"/>
   <circle cx="83.084" cy="137.88" r="1.0729"/>
   <circle cx="83.091" cy="140.53" r="1.147"/>
   <circle cx="83.096" cy="143.18" r="1.2041"/>
   <circle cx="83.1" cy="145.83" r="1.2441"/>
   <circle cx="83.102" cy="148.48" r="1.2669"/>
   <circle cx="83.103" cy="151.13" r="1.2783"/>
   <circle cx="83.103" cy="153.77" r="1.2783"/>
   <circle cx="83.102" cy="156.42" r="1.2669"/>
   <circle cx="83.1" cy="159.06" r="1.2441"/>
   <circle cx="83.097" cy="161.7" r="1.2098"/>
   <circle cx="83.092" cy="164.35" r="1.1528"/>
   <circle cx="83.085" cy="166.98" r="1.0786"/>
   <circle cx="83.077" cy="169.62" r=".98726"/>
   <circle cx="83.066" cy="172.26" r=".87313"/>
   <circle cx="83.055" cy="174.89" r=".74758"/>
   <circle cx="83.042" cy="177.52" r=".61062"/>
   <circle cx="83.029" cy="180.16" r=".46795"/>
   <circle cx="83.018" cy="182.79" r=".3424"/>
   <circle cx="83.008" cy="185.43" r=".23397"/>
   <circle cx="83" cy="188.07" r=".14837"/>
   <circle cx="82.994" cy="190.71" r=".079894"/>
   <circle cx="82.991" cy="193.35" r=".039947"/>
   <circle cx="82.989" cy="195.99" r=".022827"/>
   <circle cx="82.987" cy="198.64" r=".0057067"/>
   <circle cx="85.634" cy="106.03" r=".011413"/>
   <circle cx="85.635" cy="108.68" r=".028533"/>
   <circle cx="85.637" cy="111.33" r=".05136"/>
   <circle cx="85.643" cy="113.98" r=".10843"/>
   <circle cx="85.65" cy="116.63" r=".18832"/>
   <circle cx="85.66" cy="119.29" r=".29675"/>
   <circle cx="85.671" cy="121.95" r=".4223"/>
   <circle cx="85.685" cy="124.6" r=".57067"/>
   <circle cx="85.698" cy="127.26" r=".71904"/>
   <circle cx="85.712" cy="129.92" r=".86742"/>
   <circle cx="85.723" cy="132.58" r=".99297"/>
   <circle cx="85.733" cy="135.24" r="1.1014"/>
   <circle cx="85.741" cy="137.89" r="1.187"/>
   <circle cx="85.747" cy="140.54" r="1.2555"/>
   <circle cx="85.751" cy="143.19" r="1.3011"/>
   <circle cx="85.754" cy="145.84" r="1.3297"/>
   <circle cx="85.756" cy="148.49" r="1.3525"/>
   <circle cx="85.756" cy="151.13" r="1.3582"/>
   <circle cx="85.756" cy="153.78" r="1.3582"/>
   <circle cx="85.756" cy="156.43" r="1.3525"/>
   <circle cx="85.754" cy="159.07" r="1.3297"/>
   <circle cx="85.751" cy="161.71" r="1.3011"/>
   <circle cx="85.747" cy="164.35" r="1.2555"/>
   <circle cx="85.741" cy="166.99" r="1.1927"/>
   <circle cx="85.733" cy="169.63" r="1.1071"/>
   <circle cx="85.724" cy="172.27" r=".99867"/>
   <circle cx="85.712" cy="174.9" r=".87313"/>
   <circle cx="85.699" cy="177.54" r=".73046"/>
   <circle cx="85.686" cy="180.17" r=".58208"/>
   <circle cx="85.672" cy="182.8" r=".43371"/>
   <circle cx="85.66" cy="185.43" r=".30246"/>
   <circle cx="85.65" cy="188.07" r=".19403"/>
   <circle cx="85.643" cy="190.71" r=".11413"/>
   <circle cx="85.638" cy="193.35" r=".057067"/>
   <circle cx="85.635" cy="195.99" r=".028533"/>
   <circle cx="85.634" cy="198.64" r=".011413"/>
   <circle cx="88.28" cy="106.03" r=".011413"/>
   <circle cx="88.282" cy="108.68" r=".039947"/>
   <circle cx="88.285" cy="111.33" r=".074187"/>
   <circle cx="88.292" cy="113.98" r=".14267"/>
   <circle cx="88.3" cy="116.64" r=".23968"/>
   <circle cx="88.312" cy="119.29" r=".37094"/>
   <circle cx="88.325" cy="121.95" r=".5136"/>
   <circle cx="88.34" cy="124.61" r=".6791"/>
   <circle cx="88.354" cy="127.27" r=".83318"/>
   <circle cx="88.367" cy="129.93" r=".97585"/>
   <circle cx="88.379" cy="132.59" r="1.1071"/>
   <circle cx="88.388" cy="135.25" r="1.2041"/>
   <circle cx="88.395" cy="137.9" r="1.2783"/>
   <circle cx="88.399" cy="140.55" r="1.3297"/>
   <circle cx="88.403" cy="143.2" r="1.3639"/>
   <circle cx="88.405" cy="145.85" r="1.3867"/>
   <circle cx="88.406" cy="148.49" r="1.3981"/>
   <circle cx="88.406" cy="151.14" r="1.4038"/>
   <circle cx="88.406" cy="153.78" r="1.4038"/>
   <circle cx="88.406" cy="156.43" r="1.3981"/>
   <circle cx="88.405" cy="159.07" r="1.3867"/>
   <circle cx="88.403" cy="161.72" r="1.3696"/>
   <circle cx="88.4" cy="164.36" r="1.3354"/>
   <circle cx="88.395" cy="167" r="1.284"/>
   <circle cx="88.389" cy="169.64" r="1.2098"/>
   <circle cx="88.379" cy="172.28" r="1.1071"/>
   <circle cx="88.368" cy="174.91" r=".98726"/>
   <circle cx="88.355" cy="177.55" r=".84459"/>
   <circle cx="88.341" cy="180.18" r=".6848"/>
   <circle cx="88.326" cy="182.81" r=".52502"/>
   <circle cx="88.313" cy="185.44" r=".37664"/>
   <circle cx="88.301" cy="188.08" r=".24539"/>
   <circle cx="88.292" cy="190.71" r=".14837"/>
   <circle cx="88.285" cy="193.35" r=".074187"/>
   <circle cx="88.282" cy="195.99" r=".039947"/>
   <circle cx="88.28" cy="198.64" r=".011413"/>
   <circle cx="90.926" cy="106.03" r=".01712"/>
   <circle cx="90.929" cy="108.68" r=".05136"/>
   <circle cx="90.933" cy="111.33" r=".097014"/>
   <circle cx="90.94" cy="113.99" r=".17691"/>
   <circle cx="90.951" cy="116.64" r=".29675"/>
   <circle cx="90.964" cy="119.3" r=".43942"/>
   <circle cx="90.979" cy="121.96" r=".5992"/>
   <circle cx="90.994" cy="124.62" r=".7704"/>
   <circle cx="91.009" cy="127.28" r=".93019"/>
   <circle cx="91.022" cy="129.94" r="1.0729"/>
   <circle cx="91.032" cy="132.6" r="1.187"/>
   <circle cx="91.041" cy="135.25" r="1.2783"/>
   <circle cx="91.046" cy="137.9" r="1.3411"/>
   <circle cx="91.05" cy="140.55" r="1.381"/>
   <circle cx="91.053" cy="143.2" r="1.4096"/>
   <circle cx="91.054" cy="145.85" r="1.421"/>
   <circle cx="91.054" cy="148.49" r="1.4267"/>
   <circle cx="91.055" cy="151.14" r="1.4324"/>
   <circle cx="91.055" cy="153.79" r="1.4324"/>
   <circle cx="91.054" cy="156.43" r="1.4267"/>
   <circle cx="91.054" cy="159.08" r="1.421"/>
   <circle cx="91.053" cy="161.72" r="1.4096"/>
   <circle cx="91.05" cy="164.37" r="1.3867"/>
   <circle cx="91.046" cy="167.01" r="1.3411"/>
   <circle cx="91.041" cy="169.65" r="1.284"/>
   <circle cx="91.033" cy="172.29" r="1.1984"/>
   <circle cx="91.022" cy="174.92" r="1.0786"/>
   <circle cx="91.01" cy="177.56" r=".94161"/>
   <circle cx="90.995" cy="180.19" r=".78182"/>
   <circle cx="90.98" cy="182.82" r=".61062"/>
   <circle cx="90.965" cy="185.45" r=".44512"/>
   <circle cx="90.952" cy="188.08" r=".30246"/>
   <circle cx="90.941" cy="190.72" r=".18261"/>
   <circle cx="90.934" cy="193.35" r=".10272"/>
   <circle cx="90.93" cy="196" r=".057067"/>
   <circle cx="90.926" cy="198.64" r=".01712"/>
   <circle cx="90.925" cy="201.28" r=".0057067"/>
   <circle cx="93.571" cy="103.39" r=".0057067"/>
   <circle cx="93.572" cy="106.03" r=".022827"/>
   <circle cx="93.576" cy="108.68" r=".062774"/>
   <circle cx="93.581" cy="111.33" r=".11413"/>
   <circle cx="93.589" cy="113.99" r=".21115"/>
   <circle cx="93.601" cy="116.65" r=".3424"/>
   <circle cx="93.616" cy="119.31" r=".50219"/>
   <circle cx="93.632" cy="121.97" r=".6791"/>
   <circle cx="93.648" cy="124.63" r=".856"/>
   <circle cx="93.662" cy="127.29" r="1.0101"/>
   <circle cx="93.675" cy="129.95" r="1.147"/>
   <circle cx="93.684" cy="132.6" r="1.2555"/>
   <circle cx="93.691" cy="135.26" r="1.3297"/>
   <circle cx="93.696" cy="137.91" r="1.381"/>
   <circle cx="93.698" cy="140.56" r="1.4096"/>
   <circle cx="93.7" cy="143.2" r="1.4324"/>
   <circle cx="93.702" cy="145.85" r="1.4438"/>
   <circle cx="93.702" cy="148.5" r="1.4438"/>
   <circle cx="93.702" cy="151.14" r="1.4438"/>
   <circle cx="93.702" cy="153.79" r="1.4438"/>
   <circle cx="93.702" cy="156.43" r="1.4438"/>
   <circle cx="93.702" cy="159.08" r="1.4438"/>
   <circle cx="93.7" cy="161.72" r="1.4324"/>
   <circle cx="93.699" cy="164.37" r="1.4153"/>
   <circle cx="93.696" cy="167.01" r="1.3867"/>
   <circle cx="93.692" cy="169.65" r="1.3354"/>
   <circle cx="93.684" cy="172.29" r="1.2555"/>
   <circle cx="93.676" cy="174.93" r="1.1585"/>
   <circle cx="93.663" cy="177.56" r="1.0215"/>
   <circle cx="93.649" cy="180.19" r=".86171"/>
   <circle cx="93.632" cy="182.82" r=".6848"/>
   <circle cx="93.617" cy="185.45" r=".5136"/>
   <circle cx="93.602" cy="188.08" r=".35382"/>
   <circle cx="93.59" cy="190.72" r=".21685"/>
   <circle cx="93.581" cy="193.36" r=".11984"/>
   <circle cx="93.576" cy="196" r=".06848"/>
   <circle cx="93.573" cy="198.64" r=".028533"/>
   <circle cx="93.571" cy="201.28" r=".0057067"/>
   <circle cx="96.217" cy="103.39" r=".0057067"/>
   <circle cx="96.219" cy="106.03" r=".028533"/>
   <circle cx="96.223" cy="108.68" r=".079894"/>
   <circle cx="96.229" cy="111.34" r=".13696"/>
   <circle cx="96.238" cy="113.99" r=".24539"/>
   <circle cx="96.251" cy="116.65" r=".38806"/>
   <circle cx="96.267" cy="119.31" r=".55926"/>
   <circle cx="96.284" cy="121.97" r=".74187"/>
   <circle cx="96.3" cy="124.64" r=".91878"/>
   <circle cx="96.314" cy="127.3" r="1.0729"/>
   <circle cx="96.326" cy="129.95" r="1.2041"/>
   <circle cx="96.334" cy="132.61" r="1.3011"/>
   <circle cx="96.34" cy="135.26" r="1.3639"/>
   <circle cx="96.344" cy="137.91" r="1.4096"/>
   <circle cx="96.346" cy="140.56" r="1.4324"/>
   <circle cx="96.347" cy="143.2" r="1.4438"/>
   <circle cx="96.348" cy="145.85" r="1.4495"/>
   <circle cx="96.348" cy="148.5" r="1.4495"/>
   <circle cx="96.348" cy="151.14" r="1.4552"/>
   <circle cx="96.348" cy="153.79" r="1.4552"/>
   <circle cx="96.348" cy="156.43" r="1.4495"/>
   <circle cx="96.348" cy="159.08" r="1.4495"/>
   <circle cx="96.347" cy="161.73" r="1.4438"/>
   <circle cx="96.346" cy="164.37" r="1.4324"/>
   <circle cx="96.344" cy="167.01" r="1.4096"/>
   <circle cx="96.341" cy="169.66" r="1.3696"/>
   <circle cx="96.334" cy="172.3" r="1.3011"/>
   <circle cx="96.326" cy="174.93" r="1.2098"/>
   <circle cx="96.315" cy="177.57" r="1.0843"/>
   <circle cx="96.301" cy="180.2" r=".93019"/>
   <circle cx="96.285" cy="182.83" r=".75328"/>
   <circle cx="96.268" cy="185.46" r=".57067"/>
   <circle cx="96.252" cy="188.09" r=".39376"/>
   <circle cx="96.239" cy="190.72" r=".25109"/>
   <circle cx="96.229" cy="193.36" r=".14267"/>
   <circle cx="96.223" cy="196" r=".079894"/>
   <circle cx="96.219" cy="198.64" r=".03424"/>
   <circle cx="96.217" cy="201.28" r=".011413"/>
   <circle cx="98.863" cy="103.39" r=".011413"/>
   <circle cx="98.865" cy="106.04" r=".03424"/>
   <circle cx="98.87" cy="108.69" r=".0856"/>
   <circle cx="98.876" cy="111.34" r=".15408"/>
   <circle cx="98.887" cy="113.99" r=".27392"/>
   <circle cx="98.9" cy="116.65" r=".4223"/>
   <circle cx="98.917" cy="119.32" r=".60491"/>
   <circle cx="98.934" cy="121.98" r=".79323"/>
   <circle cx="98.95" cy="124.64" r=".97014"/>
   <circle cx="98.964" cy="127.3" r="1.1185"/>
   <circle cx="98.975" cy="129.96" r="1.2441"/>
   <circle cx="98.983" cy="132.61" r="1.3297"/>
   <circle cx="98.988" cy="135.26" r="1.3867"/>
   <circle cx="98.991" cy="137.91" r="1.421"/>
   <circle cx="98.993" cy="140.56" r="1.4438"/>
   <circle cx="98.994" cy="143.21" r="1.4495"/>
   <circle cx="98.994" cy="145.85" r="1.4552"/>
   <circle cx="98.994" cy="148.5" r="1.4552"/>
   <circle cx="98.994" cy="151.14" r="1.4552"/>
   <circle cx="98.994" cy="153.79" r="1.4552"/>
   <circle cx="98.994" cy="156.44" r="1.4552"/>
   <circle cx="98.994" cy="159.08" r="1.4552"/>
   <circle cx="98.994" cy="161.73" r="1.4495"/>
   <circle cx="98.993" cy="164.37" r="1.4438"/>
   <circle cx="98.991" cy="167.02" r="1.421"/>
   <circle cx="98.988" cy="169.66" r="1.3924"/>
   <circle cx="98.983" cy="172.3" r="1.3354"/>
   <circle cx="98.976" cy="174.94" r="1.2498"/>
   <circle cx="98.965" cy="177.57" r="1.1299"/>
   <circle cx="98.951" cy="180.2" r=".98155"/>
   <circle cx="98.935" cy="182.83" r=".80464"/>
   <circle cx="98.918" cy="185.46" r=".61632"/>
   <circle cx="98.901" cy="188.09" r=".43371"/>
   <circle cx="98.887" cy="190.72" r=".27963"/>
   <circle cx="98.876" cy="193.36" r=".15979"/>
   <circle cx="98.87" cy="196" r=".091307"/>
   <circle cx="98.866" cy="198.64" r=".039947"/>
   <circle cx="98.863" cy="201.28" r=".011413"/>
   <circle cx="101.51" cy="103.39" r=".011413"/>
   <circle cx="101.51" cy="106.04" r=".039947"/>
   <circle cx="101.52" cy="108.69" r=".097014"/>
   <circle cx="101.52" cy="111.34" r=".16549"/>
   <circle cx="101.53" cy="114" r=".29104"/>
   <circle cx="101.55" cy="116.66" r=".45083"/>
   <circle cx="101.57" cy="119.32" r=".63344"/>
   <circle cx="101.58" cy="121.98" r=".82747"/>
   <circle cx="101.6" cy="124.64" r="1.0044"/>
   <circle cx="101.61" cy="127.3" r="1.147"/>
   <circle cx="101.62" cy="129.96" r="1.2669"/>
   <circle cx="101.63" cy="132.61" r="1.3468"/>
   <circle cx="101.63" cy="135.26" r="1.3981"/>
   <circle cx="101.64" cy="137.91" r="1.4267"/>
   <circle cx="101.64" cy="140.56" r="1.4438"/>
   <circle cx="101.64" cy="143.21" r="1.4495"/>
   <circle cx="101.64" cy="145.85" r="1.4552"/>
   <circle cx="101.64" cy="148.5" r="1.4552"/>
   <circle cx="101.64" cy="151.14" r="1.4552"/>
   <circle cx="101.64" cy="153.79" r="1.4552"/>
   <circle cx="101.64" cy="156.44" r="1.4552"/>
   <circle cx="101.64" cy="159.08" r="1.4552"/>
   <circle cx="101.64" cy="161.73" r="1.4552"/>
   <circle cx="101.64" cy="164.37" r="1.4438"/>
   <circle cx="101.64" cy="167.02" r="1.4324"/>
   <circle cx="101.63" cy="169.66" r="1.3981"/>
   <circle cx="101.63" cy="172.3" r="1.3525"/>
   <circle cx="101.62" cy="174.94" r="1.2726"/>
   <circle cx="101.61" cy="177.57" r="1.1585"/>
   <circle cx="101.6" cy="180.21" r="1.0158"/>
   <circle cx="101.58" cy="182.84" r=".83888"/>
   <circle cx="101.57" cy="185.47" r=".64486"/>
   <circle cx="101.55" cy="188.09" r=".45654"/>
   <circle cx="101.53" cy="190.73" r=".29675"/>
   <circle cx="101.52" cy="193.36" r=".1712"/>
   <circle cx="101.52" cy="196" r=".097014"/>
   <circle cx="101.51" cy="198.64" r=".039947"/>
   <circle cx="101.51" cy="201.28" r=".011413"/>
   <circle cx="104.15" cy="103.39" r=".011413"/>
   <circle cx="104.16" cy="106.04" r=".045654"/>
   <circle cx="104.16" cy="108.69" r=".097014"/>
   <circle cx="104.17" cy="111.34" r=".1712"/>
   <circle cx="104.18" cy="114" r=".30246"/>
   <circle cx="104.2" cy="116.66" r=".46224"/>
   <circle cx="104.21" cy="119.32" r=".65056"/>
   <circle cx="104.23" cy="121.98" r=".84459"/>
   <circle cx="104.25" cy="124.65" r="1.0215"/>
   <circle cx="104.26" cy="127.3" r="1.1642"/>
   <circle cx="104.27" cy="129.96" r="1.2783"/>
   <circle cx="104.28" cy="132.61" r="1.3582"/>
   <circle cx="104.28" cy="135.26" r="1.4038"/>
   <circle cx="104.28" cy="137.91" r="1.4324"/>
   <circle cx="104.29" cy="140.56" r="1.4495"/>
   <circle cx="104.29" cy="143.21" r="1.4552"/>
   <circle cx="104.29" cy="145.85" r="1.4552"/>
   <circle cx="104.29" cy="148.5" r="1.4552"/>
   <circle cx="104.29" cy="151.14" r="1.4552"/>
   <circle cx="104.29" cy="153.79" r="1.4552"/>
   <circle cx="104.29" cy="156.44" r="1.4552"/>
   <circle cx="104.29" cy="159.08" r="1.4552"/>
   <circle cx="104.29" cy="161.73" r="1.4552"/>
   <circle cx="104.29" cy="164.37" r="1.4495"/>
   <circle cx="104.28" cy="167.02" r="1.4381"/>
   <circle cx="104.28" cy="169.66" r="1.4096"/>
   <circle cx="104.28" cy="172.3" r="1.3582"/>
   <circle cx="104.27" cy="174.94" r="1.284"/>
   <circle cx="104.26" cy="177.58" r="1.1699"/>
   <circle cx="104.25" cy="180.21" r="1.0329"/>
   <circle cx="104.23" cy="182.84" r=".8503"/>
   <circle cx="104.21" cy="185.47" r=".65627"/>
   <circle cx="104.2" cy="188.1" r=".47366"/>
   <circle cx="104.18" cy="190.73" r=".30816"/>
   <circle cx="104.17" cy="193.36" r=".17691"/>
   <circle cx="104.16" cy="196" r=".10272"/>
   <circle cx="104.16" cy="198.64" r=".045654"/>
   <circle cx="104.15" cy="201.28" r=".011413"/>
   <circle cx="106.8" cy="103.39" r=".011413"/>
   <circle cx="106.8" cy="106.04" r=".045654"/>
   <circle cx="106.81" cy="108.69" r=".097014"/>
   <circle cx="106.81" cy="111.34" r=".1712"/>
   <circle cx="106.83" cy="114" r=".30246"/>
   <circle cx="106.84" cy="116.66" r=".46224"/>
   <circle cx="106.86" cy="119.32" r=".65056"/>
   <circle cx="106.88" cy="121.98" r=".84459"/>
   <circle cx="106.89" cy="124.65" r="1.0215"/>
   <circle cx="106.91" cy="127.3" r="1.1642"/>
   <circle cx="106.92" cy="129.96" r="1.2783"/>
   <circle cx="106.92" cy="132.61" r="1.3582"/>
   <circle cx="106.93" cy="135.26" r="1.4038"/>
   <circle cx="106.93" cy="137.91" r="1.4324"/>
   <circle cx="106.93" cy="140.56" r="1.4495"/>
   <circle cx="106.93" cy="143.21" r="1.4552"/>
   <circle cx="106.93" cy="145.85" r="1.4552"/>
   <circle cx="106.93" cy="148.5" r="1.4552"/>
   <circle cx="106.93" cy="151.14" r="1.4552"/>
   <circle cx="106.93" cy="153.79" r="1.4552"/>
   <circle cx="106.93" cy="156.44" r="1.4552"/>
   <circle cx="106.93" cy="159.08" r="1.4552"/>
   <circle cx="106.93" cy="161.73" r="1.4552"/>
   <circle cx="106.93" cy="164.37" r="1.4495"/>
   <circle cx="106.93" cy="167.02" r="1.4381"/>
   <circle cx="106.93" cy="169.66" r="1.4096"/>
   <circle cx="106.92" cy="172.3" r="1.3582"/>
   <circle cx="106.92" cy="174.94" r="1.284"/>
   <circle cx="106.91" cy="177.58" r="1.1699"/>
   <circle cx="106.89" cy="180.21" r="1.0329"/>
   <circle cx="106.88" cy="182.84" r=".8503"/>
   <circle cx="106.86" cy="185.47" r=".65627"/>
   <circle cx="106.84" cy="188.1" r=".47366"/>
   <circle cx="106.83" cy="190.73" r=".30816"/>
   <circle cx="106.82" cy="193.36" r=".17691"/>
   <circle cx="106.81" cy="196" r=".10272"/>
   <circle cx="106.8" cy="198.64" r=".045654"/>
   <circle cx="106.8" cy="201.28" r=".011413"/>
   <circle cx="109.45" cy="103.39" r=".011413"/>
   <circle cx="109.45" cy="106.04" r=".039947"/>
   <circle cx="109.45" cy="108.69" r=".097014"/>
   <circle cx="109.46" cy="111.34" r=".16549"/>
   <circle cx="109.47" cy="114" r=".29104"/>
   <circle cx="109.49" cy="116.66" r=".45083"/>
   <circle cx="109.5" cy="119.32" r=".63344"/>
   <circle cx="109.52" cy="121.98" r=".82747"/>
   <circle cx="109.54" cy="124.64" r="1.0044"/>
   <circle cx="109.55" cy="127.3" r="1.1528"/>
   <circle cx="109.56" cy="129.96" r="1.2669"/>
   <circle cx="109.57" cy="132.61" r="1.3468"/>
   <circle cx="109.57" cy="135.26" r="1.3981"/>
   <circle cx="109.57" cy="137.91" r="1.4267"/>
   <circle cx="109.58" cy="140.56" r="1.4438"/>
   <circle cx="109.58" cy="143.21" r="1.4552"/>
   <circle cx="109.58" cy="145.85" r="1.4552"/>
   <circle cx="109.58" cy="148.5" r="1.4552"/>
   <circle cx="109.58" cy="151.14" r="1.4552"/>
   <circle cx="109.58" cy="153.79" r="1.4552"/>
   <circle cx="109.58" cy="156.44" r="1.4552"/>
   <circle cx="109.58" cy="159.08" r="1.4552"/>
   <circle cx="109.58" cy="161.73" r="1.4552"/>
   <circle cx="109.58" cy="164.37" r="1.4495"/>
   <circle cx="109.58" cy="167.02" r="1.4324"/>
   <circle cx="109.57" cy="169.66" r="1.3981"/>
   <circle cx="109.57" cy="172.3" r="1.3525"/>
   <circle cx="109.56" cy="174.94" r="1.2726"/>
   <circle cx="109.55" cy="177.57" r="1.1585"/>
   <circle cx="109.54" cy="180.21" r="1.0158"/>
   <circle cx="109.52" cy="182.84" r=".83888"/>
   <circle cx="109.5" cy="185.47" r=".64486"/>
   <circle cx="109.49" cy="188.09" r=".46224"/>
   <circle cx="109.47" cy="190.73" r=".29675"/>
   <circle cx="109.46" cy="193.36" r=".1712"/>
   <circle cx="109.45" cy="196" r=".097014"/>
   <circle cx="109.45" cy="198.64" r=".045654"/>
   <circle cx="109.45" cy="201.28" r=".011413"/>
   <circle cx="112.09" cy="103.39" r=".011413"/>
   <circle cx="112.09" cy="106.04" r=".03424"/>
   <circle cx="112.1" cy="108.69" r=".0856"/>
   <circle cx="112.11" cy="111.34" r=".15408"/>
   <circle cx="112.12" cy="113.99" r=".27392"/>
   <circle cx="112.13" cy="116.65" r=".428"/>
   <circle cx="112.15" cy="119.32" r=".60491"/>
   <circle cx="112.16" cy="121.98" r=".79323"/>
   <circle cx="112.18" cy="124.64" r=".97014"/>
   <circle cx="112.19" cy="127.3" r="1.1242"/>
   <circle cx="112.2" cy="129.96" r="1.2441"/>
   <circle cx="112.21" cy="132.61" r="1.3297"/>
   <circle cx="112.22" cy="135.26" r="1.3867"/>
   <circle cx="112.22" cy="137.91" r="1.421"/>
   <circle cx="112.22" cy="140.56" r="1.4438"/>
   <circle cx="112.22" cy="143.21" r="1.4495"/>
   <circle cx="112.22" cy="145.85" r="1.4552"/>
   <circle cx="112.22" cy="148.5" r="1.4552"/>
   <circle cx="112.22" cy="151.14" r="1.4552"/>
   <circle cx="112.22" cy="153.79" r="1.4552"/>
   <circle cx="112.22" cy="156.44" r="1.4552"/>
   <circle cx="112.22" cy="159.08" r="1.4552"/>
   <circle cx="112.22" cy="161.73" r="1.4495"/>
   <circle cx="112.22" cy="164.37" r="1.4438"/>
   <circle cx="112.22" cy="167.02" r="1.421"/>
   <circle cx="112.22" cy="169.66" r="1.3924"/>
   <circle cx="112.21" cy="172.3" r="1.3354"/>
   <circle cx="112.2" cy="174.94" r="1.2498"/>
   <circle cx="112.19" cy="177.57" r="1.1299"/>
   <circle cx="112.18" cy="180.2" r=".98155"/>
   <circle cx="112.16" cy="182.83" r=".80464"/>
   <circle cx="112.15" cy="185.46" r=".61632"/>
   <circle cx="112.13" cy="188.09" r=".43371"/>
   <circle cx="112.12" cy="190.72" r=".27963"/>
   <circle cx="112.11" cy="193.36" r=".15979"/>
   <circle cx="112.1" cy="196" r=".091307"/>
   <circle cx="112.09" cy="198.64" r=".039947"/>
   <circle cx="112.09" cy="201.28" r=".011413"/>
   <circle cx="114.74" cy="103.39" r=".0057067"/>
   <circle cx="114.74" cy="106.03" r=".028533"/>
   <circle cx="114.74" cy="108.68" r=".079894"/>
   <circle cx="114.75" cy="111.34" r=".13696"/>
   <circle cx="114.76" cy="113.99" r=".24539"/>
   <circle cx="114.77" cy="116.65" r=".38806"/>
   <circle cx="114.79" cy="119.31" r=".55926"/>
   <circle cx="114.8" cy="121.97" r=".74758"/>
   <circle cx="114.82" cy="124.64" r=".92449"/>
   <circle cx="114.83" cy="127.3" r="1.0786"/>
   <circle cx="114.85" cy="129.95" r="1.2041"/>
   <circle cx="114.86" cy="132.61" r="1.3011"/>
   <circle cx="114.86" cy="135.26" r="1.3696"/>
   <circle cx="114.87" cy="137.91" r="1.4096"/>
   <circle cx="114.87" cy="140.56" r="1.4324"/>
   <circle cx="114.87" cy="143.2" r="1.4438"/>
   <circle cx="114.87" cy="145.85" r="1.4495"/>
   <circle cx="114.87" cy="148.5" r="1.4495"/>
   <circle cx="114.87" cy="151.14" r="1.4552"/>
   <circle cx="114.87" cy="153.79" r="1.4552"/>
   <circle cx="114.87" cy="156.44" r="1.4552"/>
   <circle cx="114.87" cy="159.08" r="1.4495"/>
   <circle cx="114.87" cy="161.73" r="1.4438"/>
   <circle cx="114.87" cy="164.37" r="1.4324"/>
   <circle cx="114.87" cy="167.01" r="1.4096"/>
   <circle cx="114.86" cy="169.66" r="1.3696"/>
   <circle cx="114.86" cy="172.3" r="1.3068"/>
   <circle cx="114.85" cy="174.93" r="1.2098"/>
   <circle cx="114.84" cy="177.57" r="1.0843"/>
   <circle cx="114.82" cy="180.2" r=".9359"/>
   <circle cx="114.81" cy="182.83" r=".75328"/>
   <circle cx="114.79" cy="185.46" r=".57067"/>
   <circle cx="114.77" cy="188.09" r=".39947"/>
   <circle cx="114.76" cy="190.72" r=".25109"/>
   <circle cx="114.75" cy="193.36" r=".14267"/>
   <circle cx="114.74" cy="196" r=".079894"/>
   <circle cx="114.74" cy="198.64" r=".03424"/>
   <circle cx="114.74" cy="201.28" r=".011413"/>
   <circle cx="117.38" cy="103.39" r=".0057067"/>
   <circle cx="117.38" cy="106.03" r=".022827"/>
   <circle cx="117.39" cy="108.68" r=".062774"/>
   <circle cx="117.39" cy="111.33" r=".11413"/>
   <circle cx="117.4" cy="113.99" r=".21685"/>
   <circle cx="117.41" cy="116.65" r=".34811"/>
   <circle cx="117.43" cy="119.31" r=".5079"/>
   <circle cx="117.44" cy="121.97" r=".6791"/>
   <circle cx="117.46" cy="124.63" r=".856"/>
   <circle cx="117.48" cy="127.29" r="1.0158"/>
   <circle cx="117.49" cy="129.95" r="1.1528"/>
   <circle cx="117.5" cy="132.6" r="1.2555"/>
   <circle cx="117.5" cy="135.26" r="1.3354"/>
   <circle cx="117.51" cy="137.91" r="1.3867"/>
   <circle cx="117.51" cy="140.56" r="1.4153"/>
   <circle cx="117.51" cy="143.2" r="1.4324"/>
   <circle cx="117.51" cy="145.85" r="1.4438"/>
   <circle cx="117.51" cy="148.5" r="1.4438"/>
   <circle cx="117.51" cy="151.14" r="1.4495"/>
   <circle cx="117.51" cy="153.79" r="1.4438"/>
   <circle cx="117.51" cy="156.43" r="1.4438"/>
   <circle cx="117.51" cy="159.08" r="1.4438"/>
   <circle cx="117.51" cy="161.72" r="1.4324"/>
   <circle cx="117.51" cy="164.37" r="1.4153"/>
   <circle cx="117.51" cy="167.01" r="1.3867"/>
   <circle cx="117.5" cy="169.65" r="1.3354"/>
   <circle cx="117.5" cy="172.29" r="1.2612"/>
   <circle cx="117.49" cy="174.93" r="1.1585"/>
   <circle cx="117.48" cy="177.56" r="1.0215"/>
   <circle cx="117.46" cy="180.19" r=".86742"/>
   <circle cx="117.45" cy="182.82" r=".69051"/>
   <circle cx="117.43" cy="185.45" r=".5136"/>
   <circle cx="117.41" cy="188.08" r=".35382"/>
   <circle cx="117.4" cy="190.72" r=".22256"/>
   <circle cx="117.39" cy="193.36" r=".11984"/>
   <circle cx="117.39" cy="196" r=".06848"/>
   <circle cx="117.39" cy="198.64" r=".028533"/>
   <circle cx="117.38" cy="201.28" r=".0057067"/>
   <circle cx="120.03" cy="106.03" r=".01712"/>
   <circle cx="120.03" cy="108.68" r=".05136"/>
   <circle cx="120.04" cy="111.33" r=".097014"/>
   <circle cx="120.05" cy="113.99" r=".18261"/>
   <circle cx="120.06" cy="116.64" r=".29675"/>
   <circle cx="120.07" cy="119.3" r=".43942"/>
   <circle cx="120.08" cy="121.96" r=".60491"/>
   <circle cx="120.1" cy="124.62" r=".77611"/>
   <circle cx="120.11" cy="127.28" r=".9359"/>
   <circle cx="120.13" cy="129.94" r="1.0786"/>
   <circle cx="120.14" cy="132.6" r="1.1927"/>
   <circle cx="120.14" cy="135.25" r="1.2783"/>
   <circle cx="120.15" cy="137.9" r="1.3411"/>
   <circle cx="120.15" cy="140.55" r="1.3867"/>
   <circle cx="120.16" cy="143.2" r="1.4096"/>
   <circle cx="120.16" cy="145.85" r="1.421"/>
   <circle cx="120.16" cy="148.5" r="1.4324"/>
   <circle cx="120.16" cy="151.14" r="1.4324"/>
   <circle cx="120.16" cy="153.79" r="1.4324"/>
   <circle cx="120.16" cy="156.43" r="1.4324"/>
   <circle cx="120.16" cy="159.08" r="1.421"/>
   <circle cx="120.16" cy="161.72" r="1.4096"/>
   <circle cx="120.15" cy="164.37" r="1.3867"/>
   <circle cx="120.15" cy="167.01" r="1.3468"/>
   <circle cx="120.15" cy="169.65" r="1.284"/>
   <circle cx="120.14" cy="172.29" r="1.1984"/>
   <circle cx="120.13" cy="174.92" r="1.0843"/>
   <circle cx="120.11" cy="177.56" r=".94731"/>
   <circle cx="120.1" cy="180.19" r=".78752"/>
   <circle cx="120.08" cy="182.82" r=".61062"/>
   <circle cx="120.07" cy="185.45" r=".45083"/>
   <circle cx="120.06" cy="188.08" r=".30246"/>
   <circle cx="120.05" cy="190.72" r=".18832"/>
   <circle cx="120.04" cy="193.35" r=".10272"/>
   <circle cx="120.03" cy="196" r=".057067"/>
   <circle cx="120.03" cy="198.64" r=".01712"/>
   <circle cx="120.03" cy="201.28" r=".0057067"/>
   <circle cx="122.68" cy="106.03" r=".011413"/>
   <circle cx="122.68" cy="108.68" r=".039947"/>
   <circle cx="122.68" cy="111.33" r=".074187"/>
   <circle cx="122.69" cy="113.98" r=".14267"/>
   <circle cx="122.7" cy="116.64" r=".24539"/>
   <circle cx="122.71" cy="119.29" r=".37094"/>
   <circle cx="122.72" cy="121.95" r=".51931"/>
   <circle cx="122.74" cy="124.61" r=".6791"/>
   <circle cx="122.75" cy="127.27" r=".83888"/>
   <circle cx="122.76" cy="129.93" r=".98155"/>
   <circle cx="122.78" cy="132.59" r="1.1071"/>
   <circle cx="122.78" cy="135.25" r="1.2041"/>
   <circle cx="122.79" cy="137.9" r="1.284"/>
   <circle cx="122.8" cy="140.55" r="1.3354"/>
   <circle cx="122.8" cy="143.2" r="1.3696"/>
   <circle cx="122.8" cy="145.85" r="1.3924"/>
   <circle cx="122.8" cy="148.49" r="1.3981"/>
   <circle cx="122.8" cy="151.14" r="1.4096"/>
   <circle cx="122.8" cy="153.79" r="1.4096"/>
   <circle cx="122.8" cy="156.43" r="1.4038"/>
   <circle cx="122.8" cy="159.08" r="1.3924"/>
   <circle cx="122.8" cy="161.72" r="1.3696"/>
   <circle cx="122.8" cy="164.36" r="1.3354"/>
   <circle cx="122.79" cy="167" r="1.284"/>
   <circle cx="122.78" cy="169.64" r="1.2098"/>
   <circle cx="122.78" cy="172.28" r="1.1128"/>
   <circle cx="122.76" cy="174.91" r=".98726"/>
   <circle cx="122.75" cy="177.55" r=".84459"/>
   <circle cx="122.74" cy="180.18" r=".69051"/>
   <circle cx="122.72" cy="182.81" r=".52502"/>
   <circle cx="122.71" cy="185.44" r=".37664"/>
   <circle cx="122.7" cy="188.08" r=".25109"/>
   <circle cx="122.69" cy="190.71" r=".14837"/>
   <circle cx="122.68" cy="193.35" r=".079894"/>
   <circle cx="122.68" cy="195.99" r=".039947"/>
   <circle cx="122.68" cy="198.64" r=".011413"/>
   <circle cx="125.32" cy="106.03" r=".011413"/>
   <circle cx="125.32" cy="108.68" r=".028533"/>
   <circle cx="125.32" cy="111.33" r=".05136"/>
   <circle cx="125.33" cy="113.98" r=".10843"/>
   <circle cx="125.34" cy="116.63" r=".19403"/>
   <circle cx="125.35" cy="119.29" r=".30246"/>
   <circle cx="125.36" cy="121.95" r=".428"/>
   <circle cx="125.37" cy="124.61" r=".57638"/>
   <circle cx="125.39" cy="127.26" r=".72475"/>
   <circle cx="125.4" cy="129.92" r=".87313"/>
   <circle cx="125.41" cy="132.58" r=".99867"/>
   <circle cx="125.42" cy="135.24" r="1.1071"/>
   <circle cx="125.43" cy="137.89" r="1.1927"/>
   <circle cx="125.43" cy="140.54" r="1.2555"/>
   <circle cx="125.44" cy="143.19" r="1.3011"/>
   <circle cx="125.44" cy="145.84" r="1.3354"/>
   <circle cx="125.44" cy="148.49" r="1.3525"/>
   <circle cx="125.44" cy="151.13" r="1.3582"/>
   <circle cx="125.44" cy="153.78" r="1.3582"/>
   <circle cx="125.44" cy="156.43" r="1.3525"/>
   <circle cx="125.44" cy="159.07" r="1.3354"/>
   <circle cx="125.44" cy="161.71" r="1.3068"/>
   <circle cx="125.43" cy="164.35" r="1.2612"/>
   <circle cx="125.43" cy="167" r="1.1984"/>
   <circle cx="125.42" cy="169.63" r="1.1128"/>
   <circle cx="125.41" cy="172.27" r="1.0101"/>
   <circle cx="125.4" cy="174.9" r=".87883"/>
   <circle cx="125.39" cy="177.54" r=".73616"/>
   <circle cx="125.37" cy="180.17" r=".58208"/>
   <circle cx="125.36" cy="182.8" r=".43371"/>
   <circle cx="125.35" cy="185.43" r=".30816"/>
   <circle cx="125.34" cy="188.07" r=".19403"/>
   <circle cx="125.33" cy="190.71" r=".11413"/>
   <circle cx="125.33" cy="193.35" r=".057067"/>
   <circle cx="125.32" cy="195.99" r=".028533"/>
   <circle cx="125.32" cy="198.64" r=".011413"/>
   <circle cx="127.97" cy="106.03" r=".0057067"/>
   <circle cx="127.97" cy="108.68" r=".01712"/>
   <circle cx="127.97" cy="111.33" r=".039947"/>
   <circle cx="127.97" cy="113.98" r=".079894"/>
   <circle cx="127.98" cy="116.63" r=".14267"/>
   <circle cx="127.99" cy="119.28" r=".23397"/>
   <circle cx="128" cy="121.94" r=".3367"/>
   <circle cx="128.01" cy="124.6" r=".46795"/>
   <circle cx="128.02" cy="127.25" r=".60491"/>
   <circle cx="128.03" cy="129.91" r=".74187"/>
   <circle cx="128.05" cy="132.57" r=".87313"/>
   <circle cx="128.06" cy="135.23" r=".98155"/>
   <circle cx="128.06" cy="137.88" r="1.0786"/>
   <circle cx="128.07" cy="140.53" r="1.1528"/>
   <circle cx="128.08" cy="143.18" r="1.2098"/>
   <circle cx="128.08" cy="145.83" r="1.2441"/>
   <circle cx="128.08" cy="148.48" r="1.2726"/>
   <circle cx="128.08" cy="151.13" r="1.2783"/>
   <circle cx="128.08" cy="153.77" r="1.284"/>
   <circle cx="128.08" cy="156.42" r="1.2726"/>
   <circle cx="128.08" cy="159.06" r="1.2498"/>
   <circle cx="128.08" cy="161.7" r="1.2098"/>
   <circle cx="128.07" cy="164.35" r="1.1585"/>
   <circle cx="128.06" cy="166.98" r="1.0843"/>
   <circle cx="128.06" cy="169.62" r=".98726"/>
   <circle cx="128.05" cy="172.26" r=".87883"/>
   <circle cx="128.03" cy="174.89" r=".75328"/>
   <circle cx="128.02" cy="177.53" r=".61632"/>
   <circle cx="128.01" cy="180.16" r=".47366"/>
   <circle cx="128" cy="182.79" r=".3424"/>
   <circle cx="127.99" cy="185.43" r=".23968"/>
   <circle cx="127.98" cy="188.07" r=".14837"/>
   <circle cx="127.97" cy="190.71" r=".079894"/>
   <circle cx="127.97" cy="193.35" r=".039947"/>
   <circle cx="127.97" cy="195.99" r=".022827"/>
   <circle cx="127.97" cy="198.64" r=".0057067"/>
   <circle cx="130.61" cy="108.68" r=".011413"/>
   <circle cx="130.61" cy="111.33" r=".022827"/>
   <circle cx="130.62" cy="113.97" r=".05136"/>
   <circle cx="130.62" cy="116.62" r=".10272"/>
   <circle cx="130.63" cy="119.28" r=".1712"/>
   <circle cx="130.63" cy="121.93" r=".25109"/>
   <circle cx="130.64" cy="124.59" r=".35952"/>
   <circle cx="130.66" cy="127.24" r=".48507"/>
   <circle cx="130.67" cy="129.9" r=".60491"/>
   <circle cx="130.68" cy="132.56" r=".72475"/>
   <circle cx="130.69" cy="135.21" r=".83888"/>
   <circle cx="130.7" cy="137.87" r=".9359"/>
   <circle cx="130.7" cy="140.52" r="1.0215"/>
   <circle cx="130.71" cy="143.17" r="1.0786"/>
   <circle cx="130.71" cy="145.82" r="1.1242"/>
   <circle cx="130.72" cy="148.47" r="1.1585"/>
   <circle cx="130.72" cy="151.12" r="1.1699"/>
   <circle cx="130.72" cy="153.76" r="1.1699"/>
   <circle cx="130.72" cy="156.41" r="1.1585"/>
   <circle cx="130.71" cy="159.05" r="1.1299"/>
   <circle cx="130.71" cy="161.69" r="1.0843"/>
   <circle cx="130.7" cy="164.33" r="1.0215"/>
   <circle cx="130.7" cy="166.97" r=".94161"/>
   <circle cx="130.69" cy="169.61" r=".8503"/>
   <circle cx="130.68" cy="172.24" r=".73616"/>
   <circle cx="130.67" cy="174.88" r=".61062"/>
   <circle cx="130.66" cy="177.51" r=".49078"/>
   <circle cx="130.65" cy="180.15" r=".36523"/>
   <circle cx="130.64" cy="182.78" r=".2568"/>
   <circle cx="130.63" cy="185.42" r=".1712"/>
   <circle cx="130.62" cy="188.06" r=".10272"/>
   <circle cx="130.62" cy="190.7" r=".057067"/>
   <circle cx="130.61" cy="193.35" r=".022827"/>
   <circle cx="130.61" cy="195.99" r=".011413"/>
   <circle cx="133.26" cy="108.68" r=".0057067"/>
   <circle cx="133.26" cy="111.32" r=".011413"/>
   <circle cx="133.26" cy="113.97" r=".03424"/>
   <circle cx="133.26" cy="116.62" r=".06848"/>
   <circle cx="133.27" cy="119.27" r=".11413"/>
   <circle cx="133.27" cy="121.92" r=".17691"/>
   <circle cx="133.28" cy="124.58" r=".26251"/>
   <circle cx="133.29" cy="127.23" r=".35952"/>
   <circle cx="133.3" cy="129.89" r=".46795"/>
   <circle cx="133.31" cy="132.54" r=".57638"/>
   <circle cx="133.32" cy="135.2" r=".6848"/>
   <circle cx="133.33" cy="137.85" r=".78182"/>
   <circle cx="133.34" cy="140.51" r=".86171"/>
   <circle cx="133.34" cy="143.16" r=".92449"/>
   <circle cx="133.35" cy="145.81" r=".97585"/>
   <circle cx="133.35" cy="148.46" r="1.0101"/>
   <circle cx="133.35" cy="151.1" r="1.0272"/>
   <circle cx="133.35" cy="153.75" r="1.0329"/>
   <circle cx="133.35" cy="156.39" r="1.0101"/>
   <circle cx="133.35" cy="159.04" r=".98155"/>
   <circle cx="133.34" cy="161.68" r=".9359"/>
   <circle cx="133.34" cy="164.32" r=".86742"/>
   <circle cx="133.33" cy="166.96" r=".78752"/>
   <circle cx="133.32" cy="169.59" r=".69051"/>
   <circle cx="133.31" cy="172.23" r=".58208"/>
   <circle cx="133.3" cy="174.87" r=".47366"/>
   <circle cx="133.29" cy="177.5" r=".36523"/>
   <circle cx="133.28" cy="180.14" r=".26821"/>
   <circle cx="133.27" cy="182.78" r=".18261"/>
   <circle cx="133.27" cy="185.42" r=".11413"/>
   <circle cx="133.26" cy="188.06" r=".06848"/>
   <circle cx="133.26" cy="190.7" r=".03424"/>
   <circle cx="133.26" cy="193.35" r=".011413"/>
   <circle cx="133.26" cy="195.99" r=".0057067"/>
   <circle cx="135.9" cy="111.32" r=".0057067"/>
   <circle cx="135.91" cy="113.97" r=".01712"/>
   <circle cx="135.91" cy="116.62" r=".039947"/>
   <circle cx="135.91" cy="119.27" r=".074187"/>
   <circle cx="135.91" cy="121.92" r=".11413"/>
   <circle cx="135.92" cy="124.57" r=".17691"/>
   <circle cx="135.93" cy="127.22" r=".25109"/>
   <circle cx="135.93" cy="129.88" r=".3367"/>
   <circle cx="135.94" cy="132.53" r=".428"/>
   <circle cx="135.95" cy="135.18" r=".51931"/>
   <circle cx="135.96" cy="137.84" r=".60491"/>
   <circle cx="135.97" cy="140.49" r=".6848"/>
   <circle cx="135.97" cy="143.14" r=".75328"/>
   <circle cx="135.98" cy="145.79" r=".79894"/>
   <circle cx="135.98" cy="148.44" r=".83318"/>
   <circle cx="135.98" cy="151.09" r=".8503"/>
   <circle cx="135.98" cy="153.73" r=".8503"/>
   <circle cx="135.98" cy="156.38" r=".83318"/>
   <circle cx="135.98" cy="159.02" r=".80464"/>
   <circle cx="135.97" cy="161.66" r=".75328"/>
   <circle cx="135.97" cy="164.3" r=".69051"/>
   <circle cx="135.96" cy="166.94" r=".61062"/>
   <circle cx="135.95" cy="169.58" r=".52502"/>
   <circle cx="135.94" cy="172.22" r=".43371"/>
   <circle cx="135.93" cy="174.85" r=".3424"/>
   <circle cx="135.93" cy="177.49" r=".2568"/>
   <circle cx="135.92" cy="180.13" r=".18261"/>
   <circle cx="135.91" cy="182.77" r=".11984"/>
   <circle cx="135.91" cy="185.41" r=".074187"/>
   <circle cx="135.91" cy="188.06" r=".039947"/>
   <circle cx="135.91" cy="190.7" r=".01712"/>
   <circle cx="135.9" cy="193.34" r=".0057067"/>
   <circle cx="138.55" cy="113.97" r=".011413"/>
   <circle cx="138.55" cy="116.62" r=".022827"/>
   <circle cx="138.55" cy="119.26" r=".039947"/>
   <circle cx="138.56" cy="121.91" r=".074187"/>
   <circle cx="138.56" cy="124.56" r=".11413"/>
   <circle cx="138.56" cy="127.21" r=".1712"/>
   <circle cx="138.57" cy="129.87" r=".23397"/>
   <circle cx="138.58" cy="132.52" r=".30246"/>
   <circle cx="138.58" cy="135.17" r=".37664"/>
   <circle cx="138.59" cy="137.82" r=".44512"/>
   <circle cx="138.6" cy="140.47" r=".5136"/>
   <circle cx="138.6" cy="143.12" r=".56496"/>
   <circle cx="138.6" cy="145.77" r=".61062"/>
   <circle cx="138.61" cy="148.42" r=".64486"/>
   <circle cx="138.61" cy="151.07" r=".65627"/>
   <circle cx="138.61" cy="153.72" r=".65627"/>
   <circle cx="138.61" cy="156.36" r=".64486"/>
   <circle cx="138.61" cy="159" r=".61632"/>
   <circle cx="138.6" cy="161.65" r=".57067"/>
   <circle cx="138.6" cy="164.29" r=".5136"/>
   <circle cx="138.59" cy="166.93" r=".45083"/>
   <circle cx="138.58" cy="169.57" r=".37664"/>
   <circle cx="138.58" cy="172.21" r=".30816"/>
   <circle cx="138.57" cy="174.84" r=".23397"/>
   <circle cx="138.56" cy="177.48" r=".1712"/>
   <circle cx="138.56" cy="180.13" r=".11984"/>
   <circle cx="138.56" cy="182.77" r=".074187"/>
   <circle cx="138.55" cy="185.41" r=".045654"/>
   <circle cx="138.55" cy="188.05" r=".022827"/>
   <circle cx="138.55" cy="190.7" r=".011413"/>
   <circle cx="141.2" cy="116.62" r=".011413"/>
   <circle cx="141.2" cy="119.26" r=".022827"/>
   <circle cx="141.2" cy="121.91" r=".039947"/>
   <circle cx="141.2" cy="124.56" r=".06848"/>
   <circle cx="141.2" cy="127.21" r=".10272"/>
   <circle cx="141.21" cy="129.86" r=".14267"/>
   <circle cx="141.21" cy="132.51" r=".19403"/>
   <circle cx="141.22" cy="135.16" r=".24539"/>
   <circle cx="141.22" cy="137.81" r=".30246"/>
   <circle cx="141.23" cy="140.46" r=".35382"/>
   <circle cx="141.23" cy="143.11" r=".39376"/>
   <circle cx="141.23" cy="145.76" r=".43371"/>
   <circle cx="141.24" cy="148.41" r=".45654"/>
   <circle cx="141.24" cy="151.05" r=".46795"/>
   <circle cx="141.24" cy="153.7" r=".46795"/>
   <circle cx="141.24" cy="156.34" r=".45654"/>
   <circle cx="141.23" cy="158.99" r=".43371"/>
   <circle cx="141.23" cy="161.63" r=".39947"/>
   <circle cx="141.23" cy="164.27" r=".35382"/>
   <circle cx="141.22" cy="166.91" r=".30246"/>
   <circle cx="141.22" cy="169.55" r=".25109"/>
   <circle cx="141.21" cy="172.2" r=".19973"/>
   <circle cx="141.21" cy="174.84" r=".14837"/>
   <circle cx="141.2" cy="177.48" r=".10272"/>
   <circle cx="141.2" cy="180.12" r=".06848"/>
   <circle cx="141.2" cy="182.76" r=".039947"/>
   <circle cx="141.2" cy="185.41" r=".022827"/>
   <circle cx="141.2" cy="188.05" r=".011413"/>
   <circle cx="143.84" cy="119.26" r=".011413"/>
   <circle cx="143.84" cy="121.91" r=".01712"/>
   <circle cx="143.84" cy="124.56" r=".03424"/>
   <circle cx="143.85" cy="127.2" r=".05136"/>
   <circle cx="143.85" cy="129.85" r=".079894"/>
   <circle cx="143.85" cy="132.5" r=".11413"/>
   <circle cx="143.85" cy="135.15" r=".14837"/>
   <circle cx="143.86" cy="137.8" r=".18261"/>
   <circle cx="143.86" cy="140.45" r=".21685"/>
   <circle cx="143.86" cy="143.1" r=".25109"/>
   <circle cx="143.87" cy="145.74" r=".27963"/>
   <circle cx="143.87" cy="148.39" r=".29675"/>
   <circle cx="143.87" cy="151.04" r=".30816"/>
   <circle cx="143.87" cy="153.68" r=".30816"/>
   <circle cx="143.87" cy="156.33" r=".29675"/>
   <circle cx="143.87" cy="158.97" r=".27963"/>
   <circle cx="143.86" cy="161.62" r=".25109"/>
   <circle cx="143.86" cy="164.26" r=".22256"/>
   <circle cx="143.86" cy="166.9" r=".18261"/>
   <circle cx="143.85" cy="169.55" r=".14837"/>
   <circle cx="143.85" cy="172.19" r=".11413"/>
   <circle cx="143.85" cy="174.83" r=".079894"/>
   <circle cx="143.85" cy="177.47" r=".057067"/>
   <circle cx="143.84" cy="180.12" r=".03424"/>
   <circle cx="143.84" cy="182.76" r=".01712"/>
   <circle cx="143.84" cy="185.41" r=".011413"/>
   <circle cx="143.84" cy="188.05" r=".0057067"/>
   <circle cx="146.49" cy="121.91" r=".0057067"/>
   <circle cx="146.49" cy="124.55" r=".011413"/>
   <circle cx="146.49" cy="127.2" r=".022827"/>
   <circle cx="146.49" cy="129.85" r=".039947"/>
   <circle cx="146.49" cy="132.5" r=".057067"/>
   <circle cx="146.49" cy="135.14" r=".074187"/>
   <circle cx="146.5" cy="137.79" r=".097014"/>
   <circle cx="146.5" cy="140.44" r=".11984"/>
   <circle cx="146.5" cy="143.09" r=".14267"/>
   <circle cx="146.5" cy="145.73" r=".15979"/>
   <circle cx="146.5" cy="148.38" r=".1712"/>
   <circle cx="146.5" cy="151.03" r=".17691"/>
   <circle cx="146.5" cy="153.67" r=".17691"/>
   <circle cx="146.5" cy="156.32" r=".1712"/>
   <circle cx="146.5" cy="158.96" r=".15979"/>
   <circle cx="146.5" cy="161.61" r=".14267"/>
   <circle cx="146.5" cy="164.25" r=".11984"/>
   <circle cx="146.5" cy="166.9" r=".10272"/>
   <circle cx="146.49" cy="169.54" r=".074187"/>
   <circle cx="146.49" cy="172.18" r=".057067"/>
   <circle cx="146.49" cy="174.83" r=".039947"/>
   <circle cx="146.49" cy="177.47" r=".022827"/>
   <circle cx="146.49" cy="180.12" r=".011413"/>
   <circle cx="146.49" cy="182.76" r=".0057067"/>
   <circle cx="149.13" cy="124.55" r=".0057067"/>
   <circle cx="149.13" cy="127.2" r=".011413"/>
   <circle cx="149.13" cy="129.85" r=".01712"/>
   <circle cx="149.14" cy="132.49" r=".028533"/>
   <circle cx="149.14" cy="135.14" r=".039947"/>
   <circle cx="149.14" cy="137.79" r=".05136"/>
   <circle cx="149.14" cy="140.43" r=".06848"/>
   <circle cx="149.14" cy="143.08" r=".079894"/>
   <circle cx="149.14" cy="145.73" r=".091307"/>
   <circle cx="149.14" cy="148.37" r=".097014"/>
   <circle cx="149.14" cy="151.02" r=".10272"/>
   <circle cx="149.14" cy="153.67" r=".10272"/>
   <circle cx="149.14" cy="156.31" r=".097014"/>
   <circle cx="149.14" cy="158.96" r=".091307"/>
   <circle cx="149.14" cy="161.6" r=".079894"/>
   <circle cx="149.14" cy="164.25" r=".06848"/>
   <circle cx="149.14" cy="166.89" r=".05136"/>
   <circle cx="149.14" cy="169.54" r=".039947"/>
   <circle cx="149.14" cy="172.18" r=".028533"/>
   <circle cx="149.13" cy="174.83" r=".01712"/>
   <circle cx="149.13" cy="177.47" r=".011413"/>
   <circle cx="149.13" cy="180.12" r=".0057067"/>
   <circle cx="151.78" cy="129.84" r=".0057067"/>
   <circle cx="151.78" cy="132.49" r=".011413"/>
   <circle cx="151.78" cy="135.14" r=".011413"/>
   <circle cx="151.78" cy="137.78" r=".01712"/>
   <circle cx="151.78" cy="140.43" r=".028533"/>
   <circle cx="151.78" cy="143.08" r=".03424"/>
   <circle cx="151.78" cy="145.72" r=".039947"/>
   <circle cx="151.78" cy="148.37" r=".039947"/>
   <circle cx="151.78" cy="151.02" r=".045654"/>
   <circle cx="151.78" cy="153.66" r=".045654"/>
   <circle cx="151.78" cy="156.31" r=".039947"/>
   <circle cx="151.78" cy="158.95" r=".039947"/>
   <circle cx="151.78" cy="161.6" r=".03424"/>
   <circle cx="151.78" cy="164.24" r=".028533"/>
   <circle cx="151.78" cy="166.89" r=".01712"/>
   <circle cx="151.78" cy="169.53" r=".011413"/>
   <circle cx="151.78" cy="172.18" r=".011413"/>
   <circle cx="151.78" cy="174.82" r=".0057067"/>
   <circle cx="154.42" cy="137.78" r=".0057067"/>
   <circle cx="154.42" cy="140.43" r=".0057067"/>
   <circle cx="154.42" cy="143.07" r=".0057067"/>
   <circle cx="154.43" cy="145.72" r=".011413"/>
   <circle cx="154.43" cy="148.37" r=".011413"/>
   <circle cx="154.43" cy="151.01" r=".011413"/>
   <circle cx="154.43" cy="153.66" r=".011413"/>
   <circle cx="154.43" cy="156.3" r=".011413"/>
   <circle cx="154.43" cy="158.95" r=".011413"/>
   <circle cx="154.43" cy="161.6" r=".011413"/>
   <circle cx="154.42" cy="164.24" r=".0057067"/>
   <circle cx="154.42" cy="166.89" r=".0057067"/>
  </g>
  <path d="m135.4 182.26s-12.814-4.9507-18.594-2.5566c-5.7801 2.3942-11.34 14.956-11.34 14.956s-5.5601-12.562-11.34-14.956c-5.7801-2.3942-18.594 2.5566-18.594 2.5566s4.9507-12.814 2.5566-18.594c-2.3942-5.7801-14.956-11.34-14.956-11.34s12.562-5.5601 14.956-11.34c2.3942-5.7801-2.5566-18.594-2.5566-18.594s12.814 4.9507 18.594 2.5565c5.7801-2.3942 11.34-14.956 11.34-14.956s5.5601 12.562 11.34 14.956c5.7801 2.3942 18.594-2.5565 18.594-2.5565s-4.9507 12.814-2.5566 18.594c2.3942 5.7801 14.956 11.34 14.956 11.34s-12.562 5.5601-14.956 11.34c-2.3942 5.7801 2.5566 18.594 2.5566 18.594z">
   <animateTransform id="splashOuterRotate" attributeName="transform" begin="0s;splashOuterRotate.end" dur="5s" from="0 105 152.5" to="360 105 152.5" type="rotate"/>
  </path>
  <path d="m131.66 178.52s-11.212-4.3319-16.27-2.237c-5.0576 2.0949-9.9227 13.086-9.9227 13.086s-4.8651-10.991-9.9227-13.086c-5.0576-2.0949-16.27 2.237-16.27 2.237s4.3319-11.212 2.237-16.27c-2.0949-5.0576-13.086-9.9227-13.086-9.9227s10.991-4.8651 13.086-9.9226c2.0949-5.0576-2.237-16.27-2.237-16.27s11.212 4.3319 16.27 2.237c5.0576-2.0949 9.9227-13.086 9.9227-13.086s4.8651 10.991 9.9226 13.086c5.0576 2.0949 16.27-2.237 16.27-2.237s-4.3319 11.212-2.237 16.27c2.0949 5.0576 13.086 9.9227 13.086 9.9227s-10.991 4.8651-13.086 9.9227c-2.0949 5.0576 2.237 16.27 2.237 16.27z" fill="#f00">
   <animateTransform id="splashInnerRotate" attributeName="transform" begin="0s;splashInnerRotate.end" dur="5s" from="0 105 152.5" to="360 105 152.5" type="rotate"/>
  </path>
  <g id="text" transform="matrix(1.0665 -.28576 .28576 1.0665 3.6976 121.03)">
   <g transform="translate(-.8208 1.3819)">
    <path d="m50.17 63.228h5.3448v-10.443h10.282v-4.4066h-10.282v-6.0236h11.393v-4.4066h-16.738z" stroke="#000" stroke-linejoin="bevel" stroke-width="2.6458" style="font-variant-caps:normal;font-variant-east-asian:normal;font-variant-ligatures:normal;font-variant-numeric:normal"/>
    <path d="m50.17 63.228h5.3448v-10.443h10.282v-4.4066h-10.282v-6.0236h11.393v-4.4066h-16.738z" style="font-variant-caps:normal;font-variant-east-asian:normal;font-variant-ligatures:normal;font-variant-numeric:normal"/>
    <path d="m68.856 41.824c1.5676 0 2.839-1.1973 2.839-2.6662 0-1.4565-1.2714-2.6539-2.839-2.6539s-2.839 1.1973-2.839 2.6539c0 1.4689 1.2714 2.6662 2.839 2.6662zm-2.6415 21.404h5.2583v-18.96h-5.2583z" stroke="#000" stroke-linejoin="bevel" stroke-width="2.6458" style="font-variant-caps:normal;font-variant-east-asian:normal;font-variant-ligatures:normal;font-variant-numeric:normal"/>
    <path d="m68.856 41.824c1.5676 0 2.839-1.1973 2.839-2.6662 0-1.4565-1.2714-2.6539-2.839-2.6539s-2.839 1.1973-2.839 2.6539c0 1.4689 1.2714 2.6662 2.839 2.6662zm-2.6415 21.404h5.2583v-18.96h-5.2583z" style="font-variant-caps:normal;font-variant-east-asian:normal;font-variant-ligatures:normal;font-variant-numeric:normal"/>
    <path d="m71.473 63.228h5.2583v-10.727c0-2.3329 1.7034-3.9376 4.024-3.9376 0.72827 0 1.7281 0.12344 2.2218 0.2839v-4.6659c-0.46905-0.11109-1.1233-0.18515-1.654-0.18515-2.1231 0-3.8635 1.2344-4.5548 3.5796h-0.1975v-3.3081h-5.0979z" stroke="#000" stroke-linejoin="bevel" stroke-width="2.6458" style="font-variant-caps:normal;font-variant-east-asian:normal;font-variant-ligatures:normal;font-variant-numeric:normal"/>
    <path d="m71.473 63.228h5.2583v-10.727c0-2.3329 1.7034-3.9376 4.024-3.9376 0.72827 0 1.7281 0.12344 2.2218 0.2839v-4.6659c-0.46905-0.11109-1.1233-0.18515-1.654-0.18515-2.1231 0-3.8635 1.2344-4.5548 3.5796h-0.1975v-3.3081h-5.0979z" style="font-variant-caps:normal;font-variant-east-asian:normal;font-variant-ligatures:normal;font-variant-numeric:normal"/>
    <path d="m88.455 63.536c3.0612 0 4.6535-1.7651 5.3818-3.3451h0.22219v3.0365h5.1843v-25.28h-5.246v9.5045h-0.16047c-0.70358-1.5429-2.2218-3.4315-5.3941-3.4315-4.1598 0-7.6777 3.234-7.6777 9.7514 0 6.3446 3.3698 9.7637 7.69 9.7637zm1.6664-4.1845c-2.5798 0-3.987-2.2959-3.987-5.604 0-3.2834 1.3825-5.5422 3.987-5.5422 2.5551 0 3.987 2.1601 3.987 5.5422s-1.4565 5.604-3.987 5.604z" stroke="#000" stroke-linejoin="bevel" stroke-width="2.6458" style="font-variant-caps:normal;font-variant-east-asian:normal;font-variant-ligatures:normal;font-variant-numeric:normal"/>
    <path d="m88.455 63.536c3.0612 0 4.6535-1.7651 5.3818-3.3451h0.22219v3.0365h5.1843v-25.28h-5.246v9.5045h-0.16047c-0.70358-1.5429-2.2218-3.4315-5.3941-3.4315-4.1598 0-7.6777 3.234-7.6777 9.7514 0 6.3446 3.3698 9.7637 7.69 9.7637zm1.6664-4.1845c-2.5798 0-3.987-2.2959-3.987-5.604 0-3.2834 1.3825-5.5422 3.987-5.5422 2.5551 0 3.987 2.1601 3.987 5.5422s-1.4565 5.604-3.987 5.604z" style="font-variant-caps:normal;font-variant-east-asian:normal;font-variant-ligatures:normal;font-variant-numeric:normal"/>
    <path d="m109 44.268h-3.5673v-4.5424h-5.2584v4.5424h-2.5921v3.9499h2.5921v9.8748c-0.0247 3.7154 2.5057 5.5546 6.3199 5.3941 1.3578-0.04937 2.3206-0.32093 2.8514-0.49374l-0.82702-3.9129c-0.25921 0.04937-0.81467 0.17281-1.3084 0.17281-1.0492 0-1.7775-0.39499-1.7775-1.8515v-9.1836h3.5673z" stroke="#000" stroke-linejoin="bevel" stroke-width="2.6458" style="font-variant-caps:normal;font-variant-east-asian:normal;font-variant-ligatures:normal;font-variant-numeric:normal"/>
    <path d="m109 44.268h-3.5673v-4.5424h-5.2584v4.5424h-2.5921v3.9499h2.5921v9.8748c-0.0247 3.7154 2.5057 5.5546 6.3199 5.3941 1.3578-0.04937 2.3206-0.32093 2.8514-0.49374l-0.82702-3.9129c-0.25921 0.04937-0.81467 0.17281-1.3084 0.17281-1.0492 0-1.7775-0.39499-1.7775-1.8515v-9.1836h3.5673z" style="font-variant-caps:normal;font-variant-east-asian:normal;font-variant-ligatures:normal;font-variant-numeric:normal"/>
    <path d="m114.36 37.948h-5.4929l0.49374 17.701h4.5177zm-2.7403 25.6c1.58 0 2.9501-1.3208 2.9624-2.9624-0.0123-1.617-1.3825-2.9378-2.9624-2.9378-1.6417 0-2.9748 1.3208-2.9624 2.9378-0.0124 1.6417 1.3208 2.9624 2.9624 2.9624z" stroke="#000" stroke-linejoin="bevel" stroke-width="2.6458" style="font-variant-caps:normal;font-variant-east-asian:normal;font-variant-ligatures:normal;font-variant-numeric:normal"/>
    <path d="m114.36 37.948h-5.4929l0.49374 17.701h4.5177zm-2.7403 25.6c1.58 0 2.9501-1.3208 2.9624-2.9624-0.0123-1.617-1.3825-2.9378-2.9624-2.9378-1.6417 0-2.9748 1.3208-2.9624 2.9378-0.0124 1.6417 1.3208 2.9624 2.9624 2.9624z" style="font-variant-caps:normal;font-variant-east-asian:normal;font-variant-ligatures:normal;font-variant-numeric:normal"/>
   </g>
   <path d="m50.17 63.228h5.3448v-10.443h10.282v-4.4066h-10.282v-6.0236h11.393v-4.4066h-16.738z" stroke="#000" stroke-linejoin="bevel" stroke-width="2.6458" style="font-variant-caps:normal;font-variant-east-asian:normal;font-variant-ligatures:normal;font-variant-numeric:normal"/>
   <path d="m50.17 63.228h5.3448v-10.443h10.282v-4.4066h-10.282v-6.0236h11.393v-4.4066h-16.738z" fill="#ff0" style="font-variant-caps:normal;font-variant-east-asian:normal;font-variant-ligatures:normal;font-variant-numeric:normal"/>
   <path d="m68.856 41.824c1.5676 0 2.839-1.1973 2.839-2.6662 0-1.4565-1.2714-2.6539-2.839-2.6539s-2.839 1.1973-2.839 2.6539c0 1.4689 1.2714 2.6662 2.839 2.6662zm-2.6415 21.404h5.2583v-18.96h-5.2583z" stroke="#000" stroke-linejoin="bevel" stroke-width="2.6458" style="font-variant-caps:normal;font-variant-east-asian:normal;font-variant-ligatures:normal;font-variant-numeric:normal"/>
   <path d="m68.856 41.824c1.5676 0 2.839-1.1973 2.839-2.6662 0-1.4565-1.2714-2.6539-2.839-2.6539s-2.839 1.1973-2.839 2.6539c0 1.4689 1.2714 2.6662 2.839 2.6662zm-2.6415 21.404h5.2583v-18.96h-5.2583z" fill="#ff0" style="font-variant-caps:normal;font-variant-east-asian:normal;font-variant-ligatures:normal;font-variant-numeric:normal"/>
   <path d="m71.473 63.228h5.2583v-10.727c0-2.3329 1.7034-3.9376 4.024-3.9376 0.72827 0 1.7281 0.12344 2.2218 0.2839v-4.6659c-0.46905-0.11109-1.1233-0.18515-1.654-0.18515-2.1231 0-3.8635 1.2344-4.5548 3.5796h-0.1975v-3.3081h-5.0979z" stroke="#000" stroke-linejoin="bevel" stroke-width="2.6458" style="font-variant-caps:normal;font-variant-east-asian:normal;font-variant-ligatures:normal;font-variant-numeric:normal"/>
   <path d="m71.473 63.228h5.2583v-10.727c0-2.3329 1.7034-3.9376 4.024-3.9376 0.72827 0 1.7281 0.12344 2.2218 0.2839v-4.6659c-0.46905-0.11109-1.1233-0.18515-1.654-0.18515-2.1231 0-3.8635 1.2344-4.5548 3.5796h-0.1975v-3.3081h-5.0979z" fill="#ff0" style="font-variant-caps:normal;font-variant-east-asian:normal;font-variant-ligatures:normal;font-variant-numeric:normal"/>
   <path d="m88.455 63.536c3.0612 0 4.6535-1.7651 5.3818-3.3451h0.22219v3.0365h5.1843v-25.28h-5.246v9.5045h-0.16047c-0.70358-1.5429-2.2218-3.4315-5.3941-3.4315-4.1598 0-7.6777 3.234-7.6777 9.7514 0 6.3446 3.3698 9.7637 7.69 9.7637zm1.6664-4.1845c-2.5798 0-3.987-2.2959-3.987-5.604 0-3.2834 1.3825-5.5422 3.987-5.5422 2.5551 0 3.987 2.1601 3.987 5.5422s-1.4565 5.604-3.987 5.604z" stroke="#000" stroke-linejoin="bevel" stroke-width="2.6458" style="font-variant-caps:normal;font-variant-east-asian:normal;font-variant-ligatures:normal;font-variant-numeric:normal"/>
   <path d="m88.455 63.536c3.0612 0 4.6535-1.7651 5.3818-3.3451h0.22219v3.0365h5.1843v-25.28h-5.246v9.5045h-0.16047c-0.70358-1.5429-2.2218-3.4315-5.3941-3.4315-4.1598 0-7.6777 3.234-7.6777 9.7514 0 6.3446 3.3698 9.7637 7.69 9.7637zm1.6664-4.1845c-2.5798 0-3.987-2.2959-3.987-5.604 0-3.2834 1.3825-5.5422 3.987-5.5422 2.5551 0 3.987 2.1601 3.987 5.5422s-1.4565 5.604-3.987 5.604z" fill="#ff0" style="font-variant-caps:normal;font-variant-east-asian:normal;font-variant-ligatures:normal;font-variant-numeric:normal"/>
   <path d="m109 44.268h-3.5673v-4.5424h-5.2584v4.5424h-2.5921v3.9499h2.5921v9.8748c-0.0247 3.7154 2.5057 5.5546 6.3199 5.3941 1.3578-0.04937 2.3206-0.32093 2.8514-0.49374l-0.82702-3.9129c-0.25921 0.04937-0.81467 0.17281-1.3084 0.17281-1.0492 0-1.7775-0.39499-1.7775-1.8515v-9.1836h3.5673z" stroke="#000" stroke-linejoin="bevel" stroke-width="2.6458" style="font-variant-caps:normal;font-variant-east-asian:normal;font-variant-ligatures:normal;font-variant-numeric:normal"/>
   <path d="m109 44.268h-3.5673v-4.5424h-5.2584v4.5424h-2.5921v3.9499h2.5921v9.8748c-0.0247 3.7154 2.5057 5.5546 6.3199 5.3941 1.3578-0.04937 2.3206-0.32093 2.8514-0.49374l-0.82702-3.9129c-0.25921 0.04937-0.81467 0.17281-1.3084 0.17281-1.0492 0-1.7775-0.39499-1.7775-1.8515v-9.1836h3.5673z" fill="#ff0" style="font-variant-caps:normal;font-variant-east-asian:normal;font-variant-ligatures:normal;font-variant-numeric:normal"/>
   <path d="m114.36 37.948h-5.4929l0.49374 17.701h4.5177zm-2.7403 25.6c1.58 0 2.9501-1.3208 2.9624-2.9624-0.0123-1.617-1.3825-2.9378-2.9624-2.9378-1.6417 0-2.9748 1.3208-2.9624 2.9378-0.0124 1.6417 1.3208 2.9624 2.9624 2.9624z" stroke="#000" stroke-linejoin="bevel" stroke-width="2.6458" style="font-variant-caps:normal;font-variant-east-asian:normal;font-variant-ligatures:normal;font-variant-numeric:normal"/>
   <path d="m114.36 37.948h-5.4929l0.49374 17.701h4.5177zm-2.7403 25.6c1.58 0 2.9501-1.3208 2.9624-2.9624-0.0123-1.617-1.3825-2.9378-2.9624-2.9378-1.6417 0-2.9748 1.3208-2.9624 2.9378-0.0124 1.6417 1.3208 2.9624 2.9624 2.9624z" fill="#ff0" style="font-variant-caps:normal;font-variant-east-asian:normal;font-variant-ligatures:normal;font-variant-numeric:normal"/>
  </g>
 </g>
 <image x="80.205" y="80.21" width="19.35" height="19.35" image-rendering="optimizeQuality" preserveAspectRatio="none" xlink:href="data:image/png;base64,iVBORw0KGgoAAAANSUhEUgAAAMgAAADICAYAAACtWK6eAAAum0lEQVR42u2dB3gUxRfAb/f67e3e vkAoIZADIXRy9JKQ0BRFFMWCDRFs2P4oooBiQY2KqAiCgmBFLIAo0qtiFwFFEKUqGKoIUjJHCGT+ 31w2eOBdMrO3d7d7ufd97xMhmZudeb+bnZlXTKakREX8Pp/Z7/Ol+n2+pn6fr4ff5+vv9/ke8Pt8 z/t9vjf9Pt/Hfp9vud/n+9bv863z+3wb/D7fJkU3+n2+H/0+33d+n2+l3+eb6/f53vb7fC/6fb4R fp9vgN/n6+n3+Vr4fb7qfp/PkhzxpOhSkCjySBTTkSjmIVG8HYniOCSK85AorkeiuBeJoh+JIo6S nkCiuB+J4gYkiguRKL6MRPEuJIrdkShmIFFMgpOUGAMBAAggBwHchwDeQwAbEcBxBIB1pggB/IoA ZiOABxFAVwRQNTmDSdEaCCcC6IAARiCARQhgnw5hoNW/EMAKBPAoAshFAGJyhpOiBopUBHAFAngD AWw3MBAV6S4EMAMBXIcA0pIzn5TyoEhBAP0QwEzlmxZXMj2MAOYigAEIoEbSIpJCoDAjgG4IYBoC 2FsJoQinB5WVpRcCsCctpfKBUQsB3I8AfkzCUKGSjf4jCKBe0nISH4zWCGAKAjiUNHxmPYYAppMT vKQlJR4YPZT369NJQ9dElyGASxEAl7QuY4NxEQJYHkdDKkIAu5VXOXJE/CYCeBYBDEMAtyCAqxFA bwXgPOV+JUf5c3cEcDECuAoBDFJeCZ9GAK8jgAUIYA0C+BMB+OP4fN8ggCuToBgPjG7Kt1ysDKVE OTIlML6EAG5DAF0QwHkIQIric7oRgBcBdFYgeh4BLEYAOxDAqRiDcmnS8vQPRksE8FEMDIJ8a69F AK8ggP4IoDkCEHQ0DuRyszECuAYBjEcA38fotn8JAshOWqL+wKihGEJRFCeffCu/hQCuJyuDAceo jvK6Rg4pNkd5NSUXrHWTlhn/SeeU15mCKE32LwhgrLIncCXQuNkV95kno3jU/bey17IlLTU+k9xK 8SvSemJ3IoAJynu9tRKMI48A2iGAMQhgSxTGk7ze5SYtNnYTalOc7bQ8vSlWToaujuam2gBjS/Yu lygewEjD8SXH6y8knSOjP4Hkou9bDSfugHLq1CI5uv8Z60wEkK8cJWs13hvI6V5ydKMzYUM1/FYj G+7hSac8qnEn8S93I4BNGq4mTyCAZDCXRhOUhgA+0WhytiKAeyrza1SEr18DEcDPGs3FZwigQXJk I5sUcpv8uwaT8aeyAiXfgbU5AbtV+bLR4hX3iuSoqn+lKtbAwY64Z6Rq0afVktTogCwb9rj3D1lO +VaSmmo0PxICGKm4xkcKylNJdxW2pfwNDQb9QwTQSKt+7ZFl0WYyHcu2WFb+raNbc1rZLsvV65vN G1M5ruCIhsfXCCADAUzVYL7Ia3RKkoDyBzsdAXyhweXeJVr3rTglhXvK6fyfyWTCnS2WZUaCZIcs V29oNv9E+v6GIPSL0tyRpBCrI5y79cRFJklC6AEmflTbIhjcU8plV1T3GflO591GgkSB40fS57cE 4aoozyG5o3oIARRGMI8kKUbXJBFnD+wFimuC2kEl7hKdY9Vfo0ByDhxXx3A+fRG+CZBL4H5JMkoH kyRKOBHBYL4UD0/aIEiW/w3g1iEc1eIBR9C8WhHA4xG63d9Z2eG4RfH+VDN4JMnC5fHsv5aQHAXg DwHYDsqy7TAAb2Q4zpnjbhEeCQ+vrHDcFcGgrdSLO3W+03kXKyS/eDx13xWEvg84HE/2sdlmtrNY vs40m3/x8vy2dJ7fVo/nN7Y0m7/qZbV+eK/DMfptQbhsg8eTYTQ4gua6GgKYE8F8P1bZ4Lg7wlcq XXnZ0kCyweOp/4TT+WB7i+UrB8cVkp9nUbvJdLytxbJqtNM5dIPH4y0HjnUKHP10OO+PRjDvoysL HIMjiO++Va/PFQTJimBIVoli+yttthlqoAinDo47eqXN9tYXktTKKHAEzT/JWPmPSht4JNHhuDGC o79uen++Mki6WCxLvpakNtfYbG9xJtNprcA4VzmTqfgGm23KclFs39hs/kHvcATZQZaS9FuNLdyf qHD0UXmisclIl0djnM7bFAMuiRYY4XS6IPQ1iC0Qb4mvInjduiXR4MhReXlEsmXUNMpzHgQQb7DZ pnJxgMNsMp0eaLe/fBjAqXNbgAjhKHOZ75MocGSqLBmwFAF4jPKcWz2e9JZm83e0Bi06zTi7iYTv 6l0TT7j9PDxrRCO88PGmAZ05ohEef1s9fMfFNXHHRiIWHGZqUNpZLKv+kOXqCQxHmZIsLe2NDkeK ynfNT42UJOE3jyejPs//SmPAXZp78LQhDfDON9tivLAzxsvzSnVZLsZLFSV/Lvv7BTl4x+tt8eS7 6+OcphIVJI3N5p92yHLNBIajTEmyjgyjwkEypy9U8dBzjZRRfJcsp2aazRsqMtrzW8p45TPNMV6k QLGwMy75NBufrkDJz5wBaWFnvOSpZgHIKvq8Zmbzmr2yLCcwHGW6GhnQu9qkBOmzPixJnOAwyjMe B7BmWywryjPUVMmK37gvsxSMpblUUIRTPC+ndHVZ2DmwooBgKReS7lbrfH+Et/I6h6NM3zUaHDeo DME01DfBHXb72PIMtH2miDdPbYPxiryAcZ+OAI4zOlcBZUUe3vBqK+yrK5QLyf0Ox+MJDoexjn+V NJzHGB9undGCZT52u7uXZ5gXtQZ8ZHYnjJfkBoxaEzjOBWVpLv77w464azmvXLzJdHqJKHYyIBzb VIQ7dNE7HIIS9MLyYCTmvI6R4PgbwHkez28KZ5TdWnhw4SfZgdeqqMARDMni3ACInRpJ5e1H1h2L oXuOBnDcqxzw/KQi6V81PQMymfGBjpBAKaPtr0Y7nfeFM8bMNCf+6/0OGC+OMhznQLJ7enucUc0e FpIXXa5bDQLHA0Ft1VXKR7D8/sd6heMKFUmODZcyf7cse1I5bk8oI7RZOPzN2CyMl+XFBo5gSJbn 4RX5zbCZ50ICUpvndxyM8tG5lnAEtdlJRRbNO/UGR00EsJ/xIR404vH1cy7X4HDf0sOvSMd4RZfY whF8yrUiD999cc2wq8irgtDfSHAEtT1AxSViYz0BMpvxAd4z6N0O39xsXhPK+NKr2PHhDztivKBz XOA4rdyX7H+3PU71WEOfqlksXxgNjqDPGMfYJgn5NevBaK5l7PhGoyZw+0qSfFyYb+cxN3kD3+Dx Wj3OvGqtyMOPXFM7nL/WqR8kqaHR4DD9G8K7irHt++INRypjfXGSW9dnMqiMcjofDmV4HsGC97zd LvANHjc4glaRHdPaYJedDwnJE07nEKPBEfR5JAfXX4yJA+vHE5CpRt48HQXgaPQYAOcH4HIslpWh jO7K7KoYL82LOxxnXFOW5AbuYUL1Nc9imU88AA4DWA+pU9sBWbYelOU0fwzhCLK5voyfMy9ecOQw Jlz4RKvPPgJg/l6SGr0mCFeTmO0+Vuu7HS2W5c3M5tWZZvNPmWbz+hD6M4VuCKcNzOaNFpOpOJTR vTmkQeAUSQ+ABFaR5Xl44uDzQgJiMZlOZvD8Zm+pbqHQrcGazvNbfWbz1vUez4HilBQmKPwAGKek FJ0EGBrj64S+sYbDzJhFj5xwpUX4bW9ZIIrdbrfbJ2SazRu5MMYaa7WYObxxUqvSS0G9ALI4F/8w zoc5TvvndXIcXiSKxNCZ4CgCwCcAyO9+skeWzRHan8hYDWs7imVqJgRwMyPB10Zw71DlWZfr3iZm 83o9APHf0ysbPjqzI8bzc/QDyPwcfHBGe1xVsmr6rDLH4ZUq4SC/M8ThIO2cqsXzWx50OEZt9njS IrDBbrqMZydBTIxFM1XdbJLIuKedzqE1ef5PPYJRpm0buAMGWfKpjgCZl4NPzc3GzTJcuoHj3lI4 zj7c4LgDwxyOR/fIskelLb7K6LWRHgtAHmPslJf1Mz51u89vqiRb1rte0FIOuJWU6ASOMxv1BZ1x ThNJt3AEK9kTvSsIfVTYYgrjl/WUWNyYH46WCzI5XfmfwzHGCGCUae+2KaUeu3oDZFHngNOk3uEI 1gF2+8RDjDH1COA6xtRRjaMJyPOMBRupa2T/Ics1SDJoI8FB9OIEBiSWcJRpK7P5q189njqMdrmS oX8zogVHLQRwlKEjF9G2vd7jaVC/HPdxXQPSJjEBiQccZVqL57d/K0nNGGyzNUNKKVK1rHk0AHmO YaAWMsCRmc7zvxsRDv0DIhsOjjKtynG7WcrFMVYlm641HCT58CGGyK5WNO2SzBt1eX6zUeEg2qsN JBQgauE4Icu4SBDwnTyv2dim8fzvmzye2pQ26lW8eGn3IplaAjJSa0/dowB2xbtUmws7iwUDAK5Z syZOS0uj0lq1ahEtqUjT09NLPB6P8QDJCg1IlSpVcN26dUvO0szMkqa1a+PlgsAMB5IkfEqS8PjG jXHVtDTsEgTNIGlhNn/3N+XGnXGP/LJWcAhKKCPNh55EAE1o2r3Vbn8pory0HIfbt2+PR40ahefP n49/++03fODAAXzkyBF89OjR/+ixY8eY9fjx42f06aefLkkUQF566SV84sSJf/XUKXxi/35c2L07 Pi0IzHAU2my4eOJEfMTvx0ePHcO7du3Cn3/+OR4zZgzu1q0bttlsEUFync32KsMpK21ibPJz1bUA 5Aat06/McrsvUjtYdrsd33LLLXj16tU4lkKMymiAdA8DyKRJk85+uOPHcXGvXviE1aoKjlMTJ5Y7 dhs3bsRDhgzBoiiqhuRtQbiU0l7HRtth8twP/Jph75FVUXsHZNmdwfPb1AzShRdeiH/88UccD3nx xRcTBpCJwQZ95Ag+0bMnLuT5qMARLGSV79u3r+r9yB5ZlijstTbDXmQLy1VEqA9rw5IulKbN4Q7H I6yDw/M8fvbZZ3E8JaEAefnlmMMRLBMmTMBWK7ufGPHcprTbKQzPc3EkgLzC8EEVlu7d7vFUlzju MFOxGIcDz5o1C8dbEgqQadMw9vvjAkeZkH2jwLiZFzjun80eT00Ku23GcC/ysVo4PAyJGNYgihSX DzocjzKl9Deb8Zw5c7AeJBwgFxFAFhsLkBeeegrja66JGxxlsmDBAuYN/H2UmSKVNLa0Ua611QBy jZYFTf6SZVcaz+9kGQxilHqRRAGE3HN8k5qKT6k8rdIKjjIh+yEWm6jO87v2y7JAYb8XRzV2XSlB QNM4iRGGitpTvDXpnQB798Z6krCAtDYOIGcuAWVZF3CUyeWXX856onUZhf3aGMpPf48AOBY40hhO AibTtNnXZptBOwButxtv375dV4CMGzeuHEA66xKQHkGAqL0hjzYcRH7//XemI+DLrNYZlHZMW1WX VKxqxgLIIIZBrDAx8j5ZFqpx3G7aASBn5noTIwJyvk/WPRxlMnToUGpAiC3to3vNaqBcXtM87ygW QOYz5LiqML54mSi2Z7kI3Lp1axIQDQDJzvJgwWTSPRxEtm3bFjixpLWTZaLYTmNX+B+oXrOUXFdH KBulOlEYo5RHptEePXpgPYqhAJmbjUuW5uK+bVLwp1aX7uEoEzL3tHbynMt1ByUgtzG4wWfSNNiX Ifl0Fk0n+9vtk2kfnLh0GAmQQMDUZ10CkDDpktzo6fJcfPLDjrigYTVcIsqGgKO8MQ4TffgKJSDp DBWW79IyGdx6RFneiyVS8PvvvzcUIB0bS3jNhJb4+xeyztLvztXn/9Vvw+nYLPzN2Bbl6tdl+lxo /fy5FvjHsVn4ZPta+KTLOHAQ+fbbb6kBybNYFjNsGZZRjsH8ihqyMuQbeoamcyQrYSPKlD3EpXz/ /v26BCScs6Le1G0y4cVONz4lGgsOIvv27aM+zWpqNq9jAOQeynE4iADk8hpqzpAtsTNN5w7Ksj2d 53fQPHTdunVxUVFREhCV6jFxeIVbxBhSDAcHEeJ6n5GRQfWsGTy/9RBl1SwE0IjB9aRbeQ0Npmxk N23Bzb2lR7wFVN8KTZtivYreATHCUW5FUlJSghs1akTr3bvzgCzTBlLxCOBnyjEZXV5D71E2MpN2 eSOAVOc4quRvTZo0CQxSEpDKBweR06dP44YNG9ImdvjjgCw7GF6zxlOOy4pwDVgQwGbKRgbTduwg gK0Oz2+nWjYzMgLLbBKQygdHadzW8UAYNM1zn8fzm/9hKJCDAC5jcJ3yhGqgvnIWrNnxbpkoG6qK 3ZkFAe/evdtQgJC6hKSi07laLZTK/9Xq5aoNVwcbrhFKU+24vmzDy92JAQeRnTt3Ul8WtjSbv2f0 LUxXPHdpxqhDqAYuZyi162DpXBeLZSHtN+KqVasMBQhxCDw0qyM++F77CvXvcPp+h7P0UEX6UUd8 6K12+HBWTVwiAnP2kZOCoDs4iCxdupQ+utRq/YQREA4BrFNdxwYBPKVl5GCwDLLbJ9A+eH5+vi4B GT9+fOiJIjfpy3IxXpATfZ2fg/HSXIznZONTHdJxkdPDnLfquMWCdwwfrssxJgk4aO3kLofjORUe 6rSRhq+H+uV50UojP87lGkT74CRTiZEA6dkqRq4mpPYhqUEyqxM+0bYWRnaPqqRuA00m/Oy5SRt0 IORwJisrixqQKYJwfRTLdpz9+lbodLJs0JljeFdJUhZLFOHatWsNB0iJAeAoy3g4bvx43Y3vl19+ GUjlRJWjoLQYaSMVgLSl3agX2u1yMCBplP4qxWqKIv4NYEunPMkiev311ycBiRIcRMfrEJA+ffpQ rx4NeH4TqTimslwCVYbQQru9eTAgHaK1QS+TG0qTf1FnSYx13itdAhIFOPQIyMqVK6lXD6J32O0v RpCIZC0lIH2CAaGtsfC52o7Ncbu7MlVuatsWnzx5svICEiEcfhnwaRlCJpLWEyCFhYWBC2IW21gm ih0iAOQDSkDuDwbkYcqBn6q2Y0cArPV4/heWgdBTZGFMAYkQDuSBgD/WKAidVkdPgNx0002suXrX 0HqRhwHkCUpAJgUDQuviPjySLI35DIFTZ1LUvPBC5QJEAziQy4PxkCY4rx3oOubm0UcfZfYcmORy DYgwU+iNlIDMCwZkIeUE9Iukc3tkWSRpW1gHhSRBjreQbIAhaxRqCYhGcJy8oxHGq7rgC1rJugVk xIgRzHDU5fkth1XugYMA6UIJyJri/HzOdGraNK7Q6VxLOQk5keb6HeN03qbG5+jmm2/G//zzj/4A aakRIBrCUbKsNLKQFBjVGyB79+7FV155pSq/s6mCcG2k9ocAGipZTCoC5I/i/HyBACIUOp2/Uyan jrjoyDEAS7NSPxrmASKu0B999FHiAaIhHKeX5eKSeTmBPpG+6QWQ4uJi/MYbb+DatWurgiPbYllR lJLCaQBIKk0h2kK7/VBxfn4tAkjNQqfzIGU9hWpa1BxZIYqtzCZTkVoP1ry8PPzee+/hQ4cOxWyC X3nlleiUgdYYjtPzckqzmpQDyKQY3qQXFBQExq5ly5aqPZZdHHd8rYqLwTCA2BHA7xSAFBXn5zcl gDQsdDppvBx3IcYSveXJo07n/ZG6epNqUldccQV+/vnnA8mQ16xZgzdt2lTy66+/nlHy/zT6yy+/ lKsjR44s0RyQKMBxJu3P4s6BA4RQfR42bBhet25dSShdu3ZtubpmzZqwunr16pLPPvss8OVF/KrO P/98HK4yF4u+5HLdYtJQEMCPFIDg4vz8HAJI20Kn8zRlDixOy472Kc2Qp2l8BCmVQNxVKlLycywa 7iKrJwGEZBIhrzWMWrK4Mz4VARwnBBmfurMxxsvzSh0Zg9tfkhtwpDRy/UeiN1FmL2EE5DNKQC4m gHQrdDppJuU7rTt6CMDV3mL53MgTeEEQICWhVPlGP1eL5udg//sdVMFxQgZc4gFcNLh05Tj1aTY+ NfdfJSsTSRwXbgUxzNharXORCpcSCkDmUgJyLQHkEkpAlpuiILtlOcVnNn9j1EkUXWbcqr4btzxP 0XpEBewrR5vVFXBefRFv8VbFJwWZ3X0EUvCDbiduXt+Nm9cVcHNvmbpw8wxFvQJ2O82GhaOLxbKY fIFGw+YQwAxKQG4lgFxNCcg8U5RkjyxDjsWy1OivA9TpVU0mvMAu4BIJNPGtSjS9xGqd+Y+G+101 ud8UQP5HAOlPCchsUxTlCICdBFbZIjjdMoKqjSGvDHA4OA4NdzhGF2m81w0ByERKQB4ggAykBOQD U5Rlg8fjrc7zu5NwVM6VowrH7f1akppF284QwDhKQB4igNxMCcj70ez0PFHsXo3j9ibhqJxwBN15 HH1DEK6KMiAvUALyMAFkULxXkHcE4QqbyeRP1EkHXh0c5LTquMuDbzFZcWXZn51xUnW5bosiIC+y rCA3UgIyKxqdnSEIl5tNpmKjTiQ5LfpgZCP8/gMN8XsPNAz894w+3Bi/d1cDvKY6YCwD8z1HkVvG +/rXx9Mfbow/HN4IzyQ64l+dFU5HNsJzHmkSOFEzMiTjXK6bowTIBEpAhhNArqEE5FOtO7pUFHMc JhMy8iQGspp80aU0s0mwruqC8fzOGOfVYS9BoNyQk3sOvCLvv23T6KouuHfbFEMDwplMp99zuy+J AiBTKAG5lwDShxKQpVp2covHk67Vhrxq1aoBX5+LLroo4HpCvEXD6VVXXRVWr7766pDar18/3KpV q9AFf3xy4FKuJMruI6xKXE3C3aS3adMGDxgwIKySIKZwOnDgwJA6aNCgwH/JWOXm5uI6depoc8/E cYd/0MgPKwiQdygBuZ0Acj4lIF9r1cETAHwuQ82QUEpyuJKYgs8//xwfPHgw6k53U6dOrRgQncBR ESCxcFYkobTr1q0LxPKQ8OlI5rqZ2fzDPwB2DQGZQwnIDQSQDoVOJ03Jg/VadTDf6bxX7WD5fL6A M5zf74+pu3a4et5nANERHGWAXBQGkHjUn1+0aFHAC1vtvA9xOJ7QEJDllIBcSgBpWuh0+ikmkbgI R0zxJo8nw81xR5hvn+32QNbFeCW3DgtIlozxws4Bx0O9wFERIPEMY548ebIqD1+LyVT0lSQ10QiQ HygBySOApBc6nTS5gv5GAFUi7dw1NtubrINDgmzinbOXvJaEBWRFnq7g0DMgRNavX8+cySSQB5kx H28YOEgVtW0UgBQX5+dnEUCkQqdzF8VkknrT9SLp3PeS1MTCeKTboEEDXZSFDgdI9zaA8Sc5uoJD 74CUhd62bt2aGZLFpSXFIwEElFJrFQFypDg/P4MAwhc6nespJ7VdJJ0bYLdPYRmMGjVq4M2bN+si A0c4QLo2FDHOro2RQz9wGAEQInv27MHnnXceEyC9rNYPIgTkPOXLviJACorz8z1lWU2WU07sZWo7 9rssp0ocd5glRy9Jh68XCQUIcR8h9TlOqbzniBYcpYDk6h4QIj/88AN1TZBAPRaTCf3s8dSJAJCO lFlN1hfn5/NlgLxDOblD1HbsZZdrIMs3xdChQ3WVHvNcQFRXdooBHAFAluTiXm30DwgRcvjCYhuP l56CqgXkakpAlgbnxXqScoJfVtux863W+bQDkJ6ejo8cOaJbQPQOR0WAkBh+PQk5maStTRhIS2ux rIoAkJGUgEwLBmQQ5SQvUtOpXbIMMsf9TTsAepvA4KwmRoDDaIAQmTZtGkvA2fFNHk9NlYC8SQnI w8GAdKGc6C1qYoTni2IXardwWcYHDhzQ3QS+MGkSdppMhoDDiIAcPXo0cChDaycz3O6LVQLyNSUg /YIBqUuzs1eKIKazdupJp3Mo7YMTfyk9yoxp0/Ack8kQcBgRECLEn4vWToY5HI+qgMONAPZSAtIm GBCHUvuDZtK7snbsOpvtddoHJ0ut7uTIEXziggvwaTqftbNKEOAqKRgPa4bxN91KPXOXx0i/6ob7 tE8xFCAffvghNSC9VRz3IoBmSpXmiubuSKHdXu3cX15BOfHMJwidLZblVO7NHId//PFH/cHRsydG ZjNGDKsHiQQslgBPrg/4qZvr4qf6Z+Anb/ivPkH0+jpn6ehQet2/+ngF+ti1dfDo/hm4QZoz5DiP HTtWl4D89ttvgeJJNLbSqjQTDisg/Sjn7+dCu51njtNVdAZrx5qYzT/R7j/++usv3cFRyPMJFSar V0DIPqR69eq0md5/OwxgZgTkeco5/CDUL/en/OVfEUPHDgFYvTy/jeahvV4vLioqSsJRSQE5ffp0 IEE5zTNU5/k/98myixGQLyjn8cFQv9yC8v3sJEshzwOy7Ejj+T9oHjozMzMwSEk4KicgRFq0aEEX JMdxe3bLspsBjio0Wd0V7R6qARcC+JOygetoO0Yq3NahrHBL/HLiXpcwweHQMyCkVnrjxo3pVhCO +3OvLAsMgHSjnMtjCKBGuEbmaV2r8CgA19Bs3kjz0KmpqXEtkqMWjrLsIzcbJPuIXgE5fvw4TktL o3oGL89vOcRwJ0dbmxABrC6vkQcpG9nMcmHYzmL5grb8MznJMBIc5J7jlAfwgo418EUdq+A+Harg y8rRyztWrH3LtFNovYJodtWQeqWiV+Wm4popNkMBsn37dmyz2egiS0uLMLHsP76inNOXymukE2Uj ZK+SRdu5y22292i/3WbPnm2olSM4yzpeWlr6LKBL46xfdA3AaiRA5s6dS70KXmS1fsQAR7pyyU0z r5eX15CAAPZQNjSMtoMPlt56Uj344MGDDbPn8Ls8eFararh4SedAqYNY3JCz3KSHS/vz3HPP6RKQ e+65hxqQex2OpxgAuZ5yXgsRQFpFjc2mbIzao1LJbUT14CRdTMwSMkS4Ib+Vt+I2LTxnp/0xACB6 qBocyqOXHPPT2slbgtCXAZAPKef2S5rGbqZs7AQC8NJ08BePJ93OkCBu5syZhjmt6mJAQPS4gpBX a1r7sJpMJ372eDIo4ZBpQmwVfYSmQeK4WETZ4F20FLdiKJJDYpXJkZ8RjnK7JgHR5HiXJLOjtY8s s3m1n7JEAgLoyzDHbTV1CSY3k7SAPORwjGCqiT11qiHuOZKARC6vvfYa0zH1CIdjFMPr1UyGUA4r baO0x73FCIAqLeQaSWpgMZlO0g5CSkoK3rFjhy7g8Hs8uEgQQl4Cdm2eBCTSo10y19S5Ckym4h8k qSGlHVcnnrmU8zyO5cy4EQI4RdnwaNp2u1ks81m+KTp06IARQvG955AkjKtUwe/m5ISupadnQNrp GxByMdiuXTum1aOrxbKQwY5vZ5jrzlGJvFKScFFlXPzI7e7Oeut76aWXRp5NMQI4Cm02jN95B78y fXrCAKKHUyzyxderVy9mL4CP3O7zGWz4O4bXKxsrIPcwGFNv2nbbWyyfsQ5Kz5491YfhRgjHqYkT A81MCfOerGdALgkDyLPPPhtXOEjSuG7dujHD0cFiWVWUkkK7OW/LMN/PqIndraVcnNB8wALadheJ YkeTyVSiJpv7ihUr4gJHAJDJkxMGkHiuIAsXLsT16tVT40NWskQUOzHY7+uU832aeLKrTZHyEcNm vSltu9fabFPUONnxPI9vu+02vGXLlpjCEQBkypQkIBHIhg0bcP/+/VU7WN5ot09msNs0BHCUcs6/ iiRN40UMxvUqbbsFsgy1KF3gQ6nb7Q4M9oIFC/ChQ4c0Pa0iG3I8ffp/mnznnXcSBpDx48fH7FVq 1qxZgaJGJDu/2vnO4Plte2VZZrDbRxjmfVAkgNgUz11aP/patG3PE8XOvAa1CUmqmB49euC77roL P/nMMyXTJ078N4ac8Z7jpCDgtzt2xBMmT8bjJ0wIGFKZkkpTiQIIqcRFVhGiZD9yrj7zzDMh9emn nw6rJDsi0ZEjR5aQKlUdO3YMhFBHOr/kamCJKGYz2KyEAHZTzvsBctMeabr4B6K12XnG6RyscU07 /LHJhItdLuYEC2qDnbqR8gcki8iizrHTxRT6WZeAe73Rq92Oc7lujeLh0jhTpKJctvxD+YGkzkh1 lvb/53A8aeQ65G0zRfzba23wplda4V9C6MZJ5esGohNbhtWfz9WXz9b1YXTDlNaB1c3IcAxnzH2l eKP/QTn3J2kvuWk+eFI0j8zustufMSIcpamKTNhi5rC5THl25f+jJsxzdMqVo0aG434VJdcYV485 WpV0Ix/ckDLzIlau9pmzLz7kdI4wGhxJjY7ml2biZLVRsvcoYLCBHJOWggDei8aJVrC8LghXSRx3 MAlH5dSqHLfvQ7f7UpX2yXJytdKktSAAH4N/Flltmqv5nLWS1DDbYlmahKNy6QVW67xNHk9dlbaZ zrBPJnq+KRrC4DpMdGEEn8ONdbkGV+P5P5NwJLZm8Pz2KYIwIEK7fIPBDlaZoiVkVVBuzXHEAfAU Qsq23e9wPJbKcQVlAwo6g4NshkWnGbuDVGRUyUWnnrPUgj1CeJUFS+AAQM9gPOl0PrBPlj0R2mQn yoSHZdrNFE2hLUCi6HYEIEb6mTtlOeU5l2tgV4vlmyU6WzlsFg5/NaYF3j29Pd71Ztuz9M9w+ta/ WlCRvt0O72bQPW+3w/tmtMfrJ7QMwKcnKFwcd6yH1bpwmiBcf0CWRQ1s0UJT8zzSAlCsnSIhuccZ OjVWi8/FKSnmUwDLTzPCcQIAHwPAgyJwdahIFzzWNHAxhxd2jp0uyAmvK/Lwl2NaxBuI0xLH/dXU bP7hWpvttcmCcMNvlHHkDLY4lMEWiFNia1MsBAHkM3SMbOy1qG39lZ/F6VDRkwB4m8fz/Binc+B4 l2vgZEEY+KrLRfSmCnRAmU52uQaQ9+QMnt8cyhju7p0WuE0/PVcnbiYr8vCofrVD13/k+Z1vCsI1 bwlCvzfP1qsr0KtC6RuCcNWrLteVRF8ThCvfEYRL5rrded9IUpMdHk+VKNpgA8W9idYW3jDFShCA hyGPL9GfEIAjEjiQCjgUfUCr577Zbn8hlNHVq+HA/jmdMNZBbizSh1Of5uAWXiEkINfZbLEzlOjZ H4cAljPYADnhqh3rTt7AaKhjjAwHkffd7p7hXinmjmqM8bK8+AOyNBd/lt887KsPWQ0SAJB742kH LB1dwdBJctLQw6hwENkjy0JVjttdvldv/FaREgWQcF68Ho47tFOWqxgcDnIf52ewg59pQ8Kj0dlm SgI52s6SOoipRoSjTAbZ7ePKXUXitReZmx1YwcjqwYfxw7rWZnvT4HCQEh3rGW0hL96dfpSxw3ON CgeR1ZLUyBImjiWzlhMfnd0J4wWdY/9qNT8Hn5ibjVvWE8KGAnwmim0NDshrjLbwqh46bUcA6xg7 /rAR4SiTvjbbu+FWkVsuqBH4Jo9lMusS5eTq/stqhd17nG+1zjc4HLcw2sLvEQdDadj51gzevmX7 kd5GhIPIOknKtJtM/nDGOOG2ehiv7BKzKEPyWW8OaVBesrVTX0hSSwPD0YFx30H0Qr09xEOMD0CC q5oYDY4yGeZwjA6bXIIz4bfuyyyFJIorSYkCx+yRjQM3+uH6c6vdPt7AcNRS9q4s9jBBjw9iJm7E jA+yUTmVWGUkOIj8A+BoZjavLQ+S8WQlWZYXuPnWdONONuTkxnx5Hp42pAG2lgNHPZ7ffECWJQNv yr9mtAdyauXS6wN5EcBfjA90wmhwlMn3ktRM4Lij5blc3NqzBv5nVsfSuHUNVpPAqrEsDx//OBvf 26f8en42k+nESlFsb+DV4wNGeyBVpHx6f6jLIjB4w8BRJm+XFnIp11AbpTvxRw83Lk24QFaU+Tmq TqkwKfO2OBcvGN0UZ9UVKvSHmuRyDTAwHC+psInbjfJwz1QGOMqExK5QJV5uIQdAOf5Rp9IVhRg8 gYYY/7ycwOpQoriLBP4uAFRu4Gf9H2fjeY81xRe2BipnwcedzgcMDMejKmziDSM9IE9ciysDHKyQ BOrB13TgOy+uiWc/1BhvntIaH53ZsXSVCHjjltY7PDarI946tQ3+eFQTPKRPGm6Y7qT2pB1tbDiG qrCJ1brdd5TzoFWVrNkJD0fQ69YVbo77hymexMrj9Kp2nFVPwJ0aSzi7sYR99QRcJ9WOHVaeycXc YTIVThaEGw0Mxz0qbGIfAqhn1AduwRgrbFg4yuRbSWqRZTZ/F+v4i8Zm8/rPRbGdgeEYosImSKnA LiYjCwLoxZDswdBwlMlhAMcwh+NxB8cdjzYY5KRqiMMx5iCA28A2MlylXdxkSgRBALdFAMcwoz73 GklqfJXN9pbFZDqhNRikFFlfm+397yQpy+C2ka/SLkaZEknIA6kciOkkpaSRn/17SWpyh90+No3n d0QKRhrP7xpst4//TpJ8BrcHEk8+RaVNTDAloiCAF1QOyJdqsjXqTfbJsjDb7b5gsN0+tqXZ/LWH 4w5UBARw3ME2Fst3d9rt4z5yu3vtM+it+Dl2QFyL5qm0hXdMiSwIYLLKgSG1ENsl0lj87vGkfCGK zT90u3u+JgjX1uX5zakct2+qIFw3x+2+8BtJytopy1UTbP5JgdgfVdrAbLLymBJdEMA0lQNEgvRv SNRxybZYVp7H878m8LxfjAD2q5z7T+IWGRiHgSJB91Mj2Lg/T1303UBCilTWLc2ckohz/jBjgrdg /bjSwHHOoE2KAJLPSOqXJCC6n+M05dtf7Tx/wFyiOcEG8NkIBo94Dl+fBES3c9tbRSxHsJK3DN5U 2QUBPBjhReJbCKBaggCyJQHmU1TpjRtRmqhEh+TGCGNDSAzyFUlA4j6PFyiBcJHAcV+SiNCD211x PotkcEmhn7pJQGI+dzUiOMIvU1Lb/MokCeUPNCn3tjbCgT6IAO432slHO4vly4zS+vFGmi8S2nAr Y/mzUEo8v9smCaAbdImx5Fs4JRdSlxnlubtYLIsams3rDTRPPSJMtnGm2BJZgZKWzz4BDzAW7Amn ixFAZ70/768eT/p6j6eeAealtXKrrUUYA4k+NSetXf1kdFPcTLSYDDKpHZOjqnoushDA2xp9ae2N tAJZUv6dmGoI4H0NIxPJzWzX5MhSj397BPAuY3LAil6pvMmR1X6ibkYAf2sICrmN72e4eObYjLUV AVyiGLNW411IDk+SoxvdiauPAD7VONZ9i5JJo0FyfCGDBKkpCdi0HOPPdZ+zKgFXkz0aTyJS4LsW AVSpRGMpKfnMSJnvIxqP6WFy8ZfciMdnYmtF4DpPky3jHQTQl2RoScCxk5V8AaSkwK4ojeHM5Kqs j8nuqtF5fDg9gADmKLH1jY3qQKe8ng5QDjx2R3G8SE3KS5KWqa/JJze6gzQ8Eg6nxUqVo8lKncYm aguURnk8bAggUzmEmIAA1kTo60ajBUr6HkfSIvULikdJI7MnRjmCSUqj7cre5UkEcDUCaKkkzuNj 9MwpCKC58jr4qLLabdbwWJamlMVTieBRXZlAqY4AHlMupHAc9G/Fq3WR8p7/iFIl6VJyq69cupFX nnSlr1WUZAag/Lma8m/nKcafrcRXDFKi815BAPOV1exAnJ7xkBLdWSdpccYGhRT3+SNORlSekm/4 40r2yYOKoR9Q/nxY+bciHfZ7r5LPKglGgr163a6Bp3Bl1l+U5NKpSYtKXFBIJawLEcAs5WY3afgV 57+dr+xv7EkLqlywkPf7kcqxZBKGs/VXBPBEWR3JpCRXlRwljnprJYZip3J83SO5WiQlHCxOklJf OZ35OYJcTkZaKSYigJ4k2ULSApLCurKQ49j/IYC5Ub59jpXuV46eSTBam0qdcyopUTkJy1bi3Wcp l3FFOoahWLnEJInbRigrY0pyJpMSG2AkyYokqT6SpN5IkkYiSXoXSdL3SJL2IEk6iSQJx0iLkSTt Q5K0BknSB0iSHkGSdBmSpIZIkpJuH0nRGTher4i83vrI681FXu+1yOsdhrzeF5DXOx15vQuR1/s1 8nrXI693C/J6dyKvdw/yevcjr/eAovuVvyP/thV5vT8jr/cb5PUuQl7vDOT1jkNe73Dk9d6AvN4u yOvNRF6vJznySUkYKSko4EsKChwlBQViSUFBSklBQWpJQUF1RaspfyeVFBQ4SwoKkrEUcZL/A06u 6r4xGUZ2AAAAAElFTkSuQmCC "/>
</svg>
